v23/oszi_bilder/ALL0060/F0060CH1.CSV

Record Length,2.500000e+03,,  -0.000000270000, -12.80000,
Sample Interval,1.000000e-09,,  -0.000000269000, -12.40000,
Trigger Point,2.700000000000e+02,,  -0.000000268000, -12.80000,
,,,  -0.000000267000, -13.20000,
,,,  -0.000000266000, -12.40000,
,,,  -0.000000265000, -12.40000,
Source,CH1,,  -0.000000264000, -12.00000,
Vertical Units,V,,  -0.000000263000, -12.80000,
Vertical Scale,1.000000e+01,,  -0.000000262000, -12.40000,
Vertical Offset,0.000000e+00,,  -0.000000261000, -12.40000,
Horizontal Units,s,,  -0.000000260000, -12.00000,
Horizontal Scale,2.500000e-07,,  -0.000000259000, -12.40000,
Pt Fmt,Y,,  -0.000000258000, -12.80000,
Yzero,0.000000e+00,,  -0.000000257000, -12.80000,
Probe Atten,1.000000e+01,,  -0.000000256000, -12.80000,
Model Number,TDS1012B,,  -0.000000255000, -12.40000,
Serial Number,C063631,,  -0.000000254000, -12.40000,
Firmware Version,FV:v22.01,,  -0.000000253000, -12.00000,
,,,-00.000000252000, -12.40000,
,,,-00.000000251000, -12.40000,
,,,-00.000000250000, -12.80000,
,,,-00.000000249000, -12.40000,
,,,-00.000000248000, -12.40000,
,,,-00.000000247000, -12.80000,
,,,-00.000000246000, -12.80000,
,,,-00.000000245000, -12.40000,
,,,-00.000000244000, -12.00000,
,,,-00.000000243000, -12.40000,
,,,-00.000000242000, -12.40000,
,,,-00.000000241000, -12.80000,
,,,-00.000000240000, -12.80000,
,,,-00.000000239000, -12.40000,
,,,-00.000000238000, -12.80000,
,,,-00.000000237000, -12.80000,
,,,-00.000000236000, -12.40000,
,,,-00.000000235000, -12.40000,
,,,-00.000000234000, -12.40000,
,,,-00.000000233000, -12.40000,
,,,-00.000000232000, -12.00000,
,,,-00.000000231000, -12.80000,
,,,-00.000000230000, -12.80000,
,,,-00.000000229000, -12.80000,
,,,-00.000000228000, -13.20000,
,,,-00.000000227000, -12.80000,
,,,-00.000000226000, -12.80000,
,,,-00.000000225000, -12.40000,
,,,-00.000000224000, -12.80000,
,,,-00.000000223000, -12.00000,
,,,-00.000000222000, -12.40000,
,,,-00.000000221000, -12.40000,
,,,-00.000000220000, -12.40000,
,,,-00.000000219000, -12.40000,
,,,-00.000000218000, -12.40000,
,,,-00.000000217000, -12.40000,
,,,-00.000000216000, -12.00000,
,,,-00.000000215000, -12.40000,
,,,-00.000000214000, -12.40000,
,,,-00.000000213000, -12.40000,
,,,-00.000000212000, -12.40000,
,,,-00.000000211000, -12.80000,
,,,-00.000000210000, -12.40000,
,,,-00.000000209000, -12.80000,
,,,-00.000000208000, -12.40000,
,,,-00.000000207000, -12.40000,
,,,-00.000000206000, -12.40000,
,,,-00.000000205000, -12.40000,
,,,-00.000000204000, -12.40000,
,,,-00.000000203000, -12.40000,
,,,-00.000000202000, -12.80000,
,,,-00.000000201000, -13.20000,
,,,-00.000000200000, -12.80000,
,,,-00.000000199000, -12.40000,
,,,-00.000000198000, -12.80000,
,,,-00.000000197000, -12.40000,
,,,-00.000000196000, -12.80000,
,,,-00.000000195000, -12.80000,
,,,-00.000000194000, -12.40000,
,,,-00.000000193000, -12.40000,
,,,-00.000000192000, -12.40000,
,,,-00.000000191000, -12.40000,
,,,-00.000000190000, -12.00000,
,,,-00.000000189000, -12.00000,
,,,-00.000000188000, -12.40000,
,,,-00.000000187000, -12.40000,
,,,-00.000000186000, -12.40000,
,,,-00.000000185000, -12.40000,
,,,-00.000000184000, -12.40000,
,,,-00.000000183000, -12.40000,
,,,-00.000000182000, -12.40000,
,,,-00.000000181000, -12.40000,
,,,-00.000000180000, -12.40000,
,,,-00.000000179000, -12.80000,
,,,-00.000000178000, -12.80000,
,,,-00.000000177000, -12.40000,
,,,-00.000000176000, -12.80000,
,,,-00.000000175000, -12.80000,
,,,-00.000000174000, -12.80000,
,,,-00.000000173000, -12.80000,
,,,-00.000000172000, -12.00000,
,,,-00.000000171000, -12.40000,
,,,-00.000000170000, -12.80000,
,,,-00.000000169000, -12.80000,
,,,-00.000000168000, -12.40000,
,,,-00.000000167000, -12.00000,
,,,-00.000000166000, -12.40000,
,,,-00.000000165000, -12.40000,
,,,-00.000000164000, -12.40000,
,,,-00.000000163000, -12.40000,
,,,-00.000000162000, -12.40000,
,,,-00.000000161000, -12.40000,
,,,-00.000000160000, -12.40000,
,,,-00.000000159000, -12.80000,
,,,-00.000000158000, -12.40000,
,,,-00.000000157000, -12.80000,
,,,-00.000000156000, -12.80000,
,,,-00.000000155000, -12.40000,
,,,-00.000000154000, -12.40000,
,,,-00.000000153000, -12.80000,
,,,-00.000000152000, -12.80000,
,,,-00.000000151000, -12.80000,
,,,-00.000000150000, -12.80000,
,,,-00.000000149000, -12.80000,
,,,-00.000000148000, -12.40000,
,,,-00.000000147000, -12.80000,
,,,-00.000000146000, -12.40000,
,,,-00.000000145000, -12.40000,
,,,-00.000000144000, -12.80000,
,,,-00.000000143000, -12.80000,
,,,-00.000000142000, -12.80000,
,,,-00.000000141000, -12.40000,
,,,-00.000000140000, -12.40000,
,,,-00.000000139000, -12.40000,
,,,-00.000000138000, -13.20000,
,,,-00.000000137000, -12.40000,
,,,-00.000000136000, -12.40000,
,,,-00.000000135000, -12.40000,
,,,-00.000000134000, -12.80000,
,,,-00.000000133000, -12.00000,
,,,-00.000000132000, -12.40000,
,,,-00.000000131000, -12.80000,
,,,-00.000000130000, -12.40000,
,,,-00.000000129000, -12.80000,
,,,-00.000000128000, -12.40000,
,,,-00.000000127000, -12.00000,
,,,-00.000000126000, -12.80000,
,,,-00.000000125000, -12.40000,
,,,-00.000000124000, -12.80000,
,,,-00.000000123000, -13.20000,
,,,-00.000000122000, -12.40000,
,,,-00.000000121000, -12.40000,
,,,-00.000000120000, -12.40000,
,,,-00.000000119000, -12.40000,
,,,-00.000000118000, -12.00000,
,,,-00.000000117000, -12.40000,
,,,-00.000000116000, -12.40000,
,,,-00.000000115000, -12.40000,
,,,-00.000000114000, -12.80000,
,,,-00.000000113000, -12.40000,
,,,-00.000000112000, -12.40000,
,,,-00.000000111000, -12.00000,
,,,-00.000000110000, -13.20000,
,,,-00.000000109000, -12.80000,
,,,-00.000000108000, -12.80000,
,,,-00.000000107000, -12.40000,
,,,-00.000000106000, -12.80000,
,,,-00.000000105000, -12.40000,
,,,-00.000000104000, -12.80000,
,,,-00.000000103000, -12.40000,
,,,-00.000000102000, -12.80000,
,,,-00.000000101000, -12.40000,
,,,-00.000000100000, -12.40000,
,,,-00.000000099000, -12.40000,
,,,-00.000000098000, -12.40000,
,,,-00.000000097000, -12.80000,
,,,-00.000000096000, -12.80000,
,,,-00.000000095000, -12.80000,
,,,-00.000000094000, -12.40000,
,,,-00.000000093000, -12.80000,
,,,-00.000000092000, -12.40000,
,,,-00.000000091000, -12.00000,
,,,-00.000000090000, -12.40000,
,,,-00.000000089000, -12.40000,
,,,-00.000000088000, -12.40000,
,,,-00.000000087000, -12.80000,
,,,-00.000000086000, -12.40000,
,,,-00.000000085000, -12.00000,
,,,-00.000000084000, -12.40000,
,,,-00.000000083000, -12.40000,
,,,-00.000000082000, -12.80000,
,,,-00.000000081000, -12.40000,
,,,-00.000000080000, -12.80000,
,,,-00.000000079000, -12.80000,
,,,-00.000000078000, -12.80000,
,,,-00.000000077000, -12.40000,
,,,-00.000000076000, -12.40000,
,,,-00.000000075000, -12.80000,
,,,-00.000000074000, -12.80000,
,,,-00.000000073000, -12.00000,
,,,-00.000000072000, -12.00000,
,,,-00.000000071000, -12.40000,
,,,-00.000000070000, -12.40000,
,,,-00.000000069000, -12.40000,
,,,-00.000000068000, -12.00000,
,,,-00.000000067000, -12.40000,
,,,-00.000000066000, -12.80000,
,,,-00.000000065000, -12.80000,
,,,-00.000000064000, -12.80000,
,,,-00.000000063000, -12.80000,
,,,-00.000000062000, -12.80000,
,,,-00.000000061000, -12.40000,
,,,-00.000000060000, -12.40000,
,,,-00.000000059000, -12.40000,
,,,-00.000000058000, -12.40000,
,,,-00.000000057000, -12.40000,
,,,-00.000000056000, -12.40000,
,,,-00.000000055000, -12.00000,
,,,-00.000000054000, -12.40000,
,,,-00.000000053000, -12.80000,
,,,-00.000000052000, -12.80000,
,,,-00.000000051000, -12.40000,
,,,-00.000000050000, -12.00000,
,,,-00.000000049000, -12.80000,
,,,-00.000000048000, -12.80000,
,,,-00.000000047000, -12.40000,
,,,-00.000000046000, -12.00000,
,,,-00.000000045000, -12.80000,
,,,-00.000000044000, -12.80000,
,,,-00.000000043000, -12.80000,
,,,-00.000000042000, -12.80000,
,,,-00.000000041000, -12.80000,
,,,-00.000000040000, -12.80000,
,,,-00.000000039000, -12.80000,
,,,-00.000000038000, -12.40000,
,,,-00.000000037000, -12.80000,
,,,-00.000000036000, -12.40000,
,,,-00.000000035000, -12.80000,
,,,-00.000000034000, -12.40000,
,,,-00.000000033000, -12.80000,
,,,-00.000000032000, -12.80000,
,,,-00.000000031000, -12.40000,
,,,-00.000000030000, -12.80000,
,,,-00.000000029000, -12.40000,
,,,-00.000000028000, -12.40000,
,,,-00.000000027000, -12.00000,
,,,-00.000000026000, -12.40000,
,,,-00.000000025000, -12.00000,
,,,-00.000000024000, -12.80000,
,,,-00.000000023000, -12.40000,
,,,-00.000000022000, -12.40000,
,,,-00.000000021000, -12.40000,
,,,-00.000000020000, -12.40000,
,,,-00.000000019000, -12.40000,
,,,-00.000000018000, -12.40000,
,,,-00.000000017000, -12.00000,
,,,-00.000000016000, -12.40000,
,,,-00.000000015000, -12.80000,
,,,-00.000000014000, -12.40000,
,,,-00.000000013000, -12.40000,
,,,-00.000000012000, -12.00000,
,,,-00.000000011000, -12.40000,
,,,-00.000000010000, -12.80000,
,,,-00.000000009000, -12.40000,
,,,-00.000000008000, -12.40000,
,,,-00.000000007000, -12.40000,
,,,-00.000000006000, -12.40000,
,,,-00.000000005000, -12.00000,
,,,-00.000000004000, -12.00000,
,,,-00.000000003000, -10.80000,
,,,-00.000000002000,  -9.60000,
,,,-00.000000001000,  -6.40000,
,,,-00.000000000000,  -2.40000,
,,,00.000000001000,   0.40000,
,,,00.000000002000,   2.80000,
,,,00.000000003000,   4.40000,
,,,00.000000004000,   5.60000,
,,,00.000000005000,   6.40000,
,,,00.000000006000,   7.20000,
,,,00.000000007000,   7.60000,
,,,00.000000008000,   7.60000,
,,,00.000000009000,   8.00000,
,,,00.000000010000,   8.00000,
,,,00.000000011000,   8.40000,
,,,00.000000012000,   8.00000,
,,,00.000000013000,   8.00000,
,,,00.000000014000,   8.40000,
,,,00.000000015000,   8.00000,
,,,00.000000016000,   8.00000,
,,,00.000000017000,   8.00000,
,,,00.000000018000,   8.40000,
,,,00.000000019000,   8.00000,
,,,00.000000020000,   8.00000,
,,,00.000000021000,   8.00000,
,,,00.000000022000,   8.00000,
,,,00.000000023000,   8.00000,
,,,00.000000024000,   8.80000,
,,,00.000000025000,   8.40000,
,,,00.000000026000,   8.80000,
,,,00.000000027000,   8.40000,
,,,00.000000028000,   8.00000,
,,,00.000000029000,   8.40000,
,,,00.000000030000,   8.40000,
,,,00.000000031000,   8.80000,
,,,00.000000032000,   8.00000,
,,,00.000000033000,   8.40000,
,,,00.000000034000,   8.00000,
,,,00.000000035000,   8.40000,
,,,00.000000036000,   8.00000,
,,,00.000000037000,   8.40000,
,,,00.000000038000,   8.40000,
,,,00.000000039000,   8.00000,
,,,00.000000040000,   8.80000,
,,,00.000000041000,   8.00000,
,,,00.000000042000,   8.00000,
,,,00.000000043000,   8.80000,
,,,00.000000044000,   8.80000,
,,,00.000000045000,   8.40000,
,,,00.000000046000,   8.40000,
,,,00.000000047000,   8.00000,
,,,00.000000048000,   8.40000,
,,,00.000000049000,   8.00000,
,,,00.000000050000,   8.40000,
,,,00.000000051000,   8.80000,
,,,00.000000052000,   8.40000,
,,,00.000000053000,   8.80000,
,,,00.000000054000,   8.40000,
,,,00.000000055000,   8.00000,
,,,00.000000056000,   8.40000,
,,,00.000000057000,   8.80000,
,,,00.000000058000,   8.80000,
,,,00.000000059000,   8.40000,
,,,00.000000060000,   8.40000,
,,,00.000000061000,   8.80000,
,,,00.000000062000,   8.80000,
,,,00.000000063000,   8.80000,
,,,00.000000064000,   8.00000,
,,,00.000000065000,   8.40000,
,,,00.000000066000,   8.40000,
,,,00.000000067000,   8.40000,
,,,00.000000068000,   8.40000,
,,,00.000000069000,   8.40000,
,,,00.000000070000,   8.40000,
,,,00.000000071000,   8.40000,
,,,00.000000072000,   8.40000,
,,,00.000000073000,   8.40000,
,,,00.000000074000,   8.40000,
,,,00.000000075000,   8.00000,
,,,00.000000076000,   8.40000,
,,,00.000000077000,   8.40000,
,,,00.000000078000,   8.40000,
,,,00.000000079000,   8.40000,
,,,00.000000080000,   8.80000,
,,,00.000000081000,   8.40000,
,,,00.000000082000,   8.40000,
,,,00.000000083000,   8.40000,
,,,00.000000084000,   8.40000,
,,,00.000000085000,   8.80000,
,,,00.000000086000,   8.40000,
,,,00.000000087000,   8.80000,
,,,00.000000088000,   8.80000,
,,,00.000000089000,   8.80000,
,,,00.000000090000,   8.80000,
,,,00.000000091000,   8.40000,
,,,00.000000092000,   8.40000,
,,,00.000000093000,   8.80000,
,,,00.000000094000,   8.40000,
,,,00.000000095000,   8.80000,
,,,00.000000096000,   8.40000,
,,,00.000000097000,   8.80000,
,,,00.000000098000,   8.80000,
,,,00.000000099000,   9.20000,
,,,00.000000100000,   9.60000,
,,,00.000000101000,  10.00000,
,,,00.000000102000,  10.00000,
,,,00.000000103000,  10.00000,
,,,00.000000104000,  10.80000,
,,,00.000000105000,  11.20000,
,,,00.000000106000,  11.20000,
,,,00.000000107000,  12.00000,
,,,00.000000108000,  11.60000,
,,,00.000000109000,  11.60000,
,,,00.000000110000,  11.20000,
,,,00.000000111000,  12.00000,
,,,00.000000112000,  12.00000,
,,,00.000000113000,  12.00000,
,,,00.000000114000,  12.00000,
,,,00.000000115000,  12.00000,
,,,00.000000116000,  11.60000,
,,,00.000000117000,  11.60000,
,,,00.000000118000,  12.40000,
,,,00.000000119000,  12.00000,
,,,00.000000120000,  12.00000,
,,,00.000000121000,  12.00000,
,,,00.000000122000,  11.60000,
,,,00.000000123000,  12.00000,
,,,00.000000124000,  12.00000,
,,,00.000000125000,  12.40000,
,,,00.000000126000,  12.40000,
,,,00.000000127000,  12.00000,
,,,00.000000128000,  12.40000,
,,,00.000000129000,  12.40000,
,,,00.000000130000,  12.40000,
,,,00.000000131000,  12.00000,
,,,00.000000132000,  12.40000,
,,,00.000000133000,  12.00000,
,,,00.000000134000,  12.00000,
,,,00.000000135000,  12.00000,
,,,00.000000136000,  12.40000,
,,,00.000000137000,  12.00000,
,,,00.000000138000,  12.00000,
,,,00.000000139000,  12.00000,
,,,00.000000140000,  12.00000,
,,,00.000000141000,  12.00000,
,,,00.000000142000,  12.00000,
,,,00.000000143000,  12.40000,
,,,00.000000144000,  12.00000,
,,,00.000000145000,  11.60000,
,,,00.000000146000,  12.40000,
,,,00.000000147000,  12.00000,
,,,00.000000148000,  11.60000,
,,,00.000000149000,  12.40000,
,,,00.000000150000,  12.00000,
,,,00.000000151000,  12.40000,
,,,00.000000152000,  12.40000,
,,,00.000000153000,  12.00000,
,,,00.000000154000,  12.40000,
,,,00.000000155000,  12.00000,
,,,00.000000156000,  12.00000,
,,,00.000000157000,  12.40000,
,,,00.000000158000,  11.60000,
,,,00.000000159000,  12.00000,
,,,00.000000160000,  12.40000,
,,,00.000000161000,  12.00000,
,,,00.000000162000,  12.00000,
,,,00.000000163000,  12.00000,
,,,00.000000164000,  12.40000,
,,,00.000000165000,  11.60000,
,,,00.000000166000,  12.00000,
,,,00.000000167000,  12.00000,
,,,00.000000168000,  12.00000,
,,,00.000000169000,  12.00000,
,,,00.000000170000,  12.00000,
,,,00.000000171000,  11.60000,
,,,00.000000172000,  12.00000,
,,,00.000000173000,  12.00000,
,,,00.000000174000,  11.60000,
,,,00.000000175000,  12.00000,
,,,00.000000176000,  11.60000,
,,,00.000000177000,  11.60000,
,,,00.000000178000,  12.00000,
,,,00.000000179000,  12.40000,
,,,00.000000180000,  11.60000,
,,,00.000000181000,  12.40000,
,,,00.000000182000,  12.40000,
,,,00.000000183000,  12.00000,
,,,00.000000184000,  12.00000,
,,,00.000000185000,  12.00000,
,,,00.000000186000,  12.00000,
,,,00.000000187000,  12.00000,
,,,00.000000188000,  12.40000,
,,,00.000000189000,  12.40000,
,,,00.000000190000,  12.40000,
,,,00.000000191000,  12.00000,
,,,00.000000192000,  12.00000,
,,,00.000000193000,  12.00000,
,,,00.000000194000,  11.60000,
,,,00.000000195000,  12.00000,
,,,00.000000196000,  12.00000,
,,,00.000000197000,  12.00000,
,,,00.000000198000,  12.00000,
,,,00.000000199000,  12.00000,
,,,00.000000200000,  12.00000,
,,,00.000000201000,  11.60000,
,,,00.000000202000,  12.00000,
,,,00.000000203000,  11.60000,
,,,00.000000204000,  12.00000,
,,,00.000000205000,  11.60000,
,,,00.000000206000,  12.40000,
,,,00.000000207000,  11.60000,
,,,00.000000208000,  12.00000,
,,,00.000000209000,  12.00000,
,,,00.000000210000,  12.40000,
,,,00.000000211000,  11.60000,
,,,00.000000212000,  12.00000,
,,,00.000000213000,  12.00000,
,,,00.000000214000,  12.40000,
,,,00.000000215000,  12.00000,
,,,00.000000216000,  11.60000,
,,,00.000000217000,  11.60000,
,,,00.000000218000,  11.60000,
,,,00.000000219000,  12.00000,
,,,00.000000220000,  12.00000,
,,,00.000000221000,  12.00000,
,,,00.000000222000,  12.00000,
,,,00.000000223000,  12.00000,
,,,00.000000224000,  12.40000,
,,,00.000000225000,  12.40000,
,,,00.000000226000,  12.00000,
,,,00.000000227000,  12.40000,
,,,00.000000228000,  12.00000,
,,,00.000000229000,  12.00000,
,,,00.000000230000,  12.00000,
,,,00.000000231000,  12.40000,
,,,00.000000232000,  12.00000,
,,,00.000000233000,  12.00000,
,,,00.000000234000,  12.00000,
,,,00.000000235000,  12.00000,
,,,00.000000236000,  11.60000,
,,,00.000000237000,  12.00000,
,,,00.000000238000,  12.00000,
,,,00.000000239000,  11.60000,
,,,00.000000240000,  12.00000,
,,,00.000000241000,  12.00000,
,,,00.000000242000,  12.00000,
,,,00.000000243000,  12.00000,
,,,00.000000244000,  12.40000,
,,,00.000000245000,  12.00000,
,,,00.000000246000,  12.40000,
,,,00.000000247000,  12.00000,
,,,00.000000248000,  12.00000,
,,,00.000000249000,  12.40000,
,,,00.000000250000,  12.40000,
,,,00.000000251000,  12.80000,
,,,00.000000252000,  12.00000,
,,,00.000000253000,  12.00000,
,,,00.000000254000,  11.60000,
,,,00.000000255000,  11.60000,
,,,00.000000256000,  11.60000,
,,,00.000000257000,  12.40000,
,,,00.000000258000,  12.00000,
,,,00.000000259000,  12.00000,
,,,00.000000260000,  12.00000,
,,,00.000000261000,  12.00000,
,,,00.000000262000,  12.00000,
,,,00.000000263000,  12.40000,
,,,00.000000264000,  12.00000,
,,,00.000000265000,  11.60000,
,,,00.000000266000,  12.00000,
,,,00.000000267000,  12.00000,
,,,00.000000268000,  12.00000,
,,,00.000000269000,  12.40000,
,,,00.000000270000,  12.00000,
,,,00.000000271000,  12.00000,
,,,00.000000272000,  12.00000,
,,,00.000000273000,  11.60000,
,,,00.000000274000,  11.60000,
,,,00.000000275000,  11.60000,
,,,00.000000276000,  12.00000,
,,,00.000000277000,  12.00000,
,,,00.000000278000,  12.00000,
,,,00.000000279000,  12.00000,
,,,00.000000280000,  12.00000,
,,,00.000000281000,  12.00000,
,,,00.000000282000,  12.40000,
,,,00.000000283000,  12.00000,
,,,00.000000284000,  12.00000,
,,,00.000000285000,  12.00000,
,,,00.000000286000,  12.00000,
,,,00.000000287000,  12.00000,
,,,00.000000288000,  12.00000,
,,,00.000000289000,  12.00000,
,,,00.000000290000,  11.60000,
,,,00.000000291000,  12.00000,
,,,00.000000292000,  12.40000,
,,,00.000000293000,  12.00000,
,,,00.000000294000,  12.00000,
,,,00.000000295000,  12.00000,
,,,00.000000296000,  12.40000,
,,,00.000000297000,  11.60000,
,,,00.000000298000,  12.00000,
,,,00.000000299000,  12.00000,
,,,00.000000300000,  11.60000,
,,,00.000000301000,  12.00000,
,,,00.000000302000,  12.40000,
,,,00.000000303000,  12.00000,
,,,00.000000304000,  11.60000,
,,,00.000000305000,  12.00000,
,,,00.000000306000,  11.60000,
,,,00.000000307000,  12.00000,
,,,00.000000308000,  12.00000,
,,,00.000000309000,  11.60000,
,,,00.000000310000,  11.60000,
,,,00.000000311000,  12.00000,
,,,00.000000312000,  12.40000,
,,,00.000000313000,  12.00000,
,,,00.000000314000,  12.00000,
,,,00.000000315000,  12.00000,
,,,00.000000316000,  12.00000,
,,,00.000000317000,  12.00000,
,,,00.000000318000,  11.60000,
,,,00.000000319000,  12.00000,
,,,00.000000320000,  12.00000,
,,,00.000000321000,  12.40000,
,,,00.000000322000,  12.00000,
,,,00.000000323000,  12.40000,
,,,00.000000324000,  12.00000,
,,,00.000000325000,  11.60000,
,,,00.000000326000,  12.40000,
,,,00.000000327000,  11.60000,
,,,00.000000328000,  12.00000,
,,,00.000000329000,  12.00000,
,,,00.000000330000,  12.40000,
,,,00.000000331000,  11.60000,
,,,00.000000332000,  12.00000,
,,,00.000000333000,  12.00000,
,,,00.000000334000,  12.40000,
,,,00.000000335000,  11.60000,
,,,00.000000336000,  12.00000,
,,,00.000000337000,  11.60000,
,,,00.000000338000,  12.00000,
,,,00.000000339000,  12.00000,
,,,00.000000340000,  11.60000,
,,,00.000000341000,  12.00000,
,,,00.000000342000,  12.00000,
,,,00.000000343000,  12.00000,
,,,00.000000344000,  12.00000,
,,,00.000000345000,  12.00000,
,,,00.000000346000,  11.60000,
,,,00.000000347000,  12.00000,
,,,00.000000348000,  12.00000,
,,,00.000000349000,  12.00000,
,,,00.000000350000,  12.00000,
,,,00.000000351000,  12.00000,
,,,00.000000352000,  12.00000,
,,,00.000000353000,  12.00000,
,,,00.000000354000,  12.00000,
