v52/oszi_bilder/ALL0054/F0054CH1.CSV

Record Length,2.500000e+03,,  -0.000000270000,  -1.20000,
Sample Interval,1.000000e-09,,  -0.000000269000,  -1.20000,
Trigger Point,2.700000000000e+02,,  -0.000000268000,  -2.00000,
,,,  -0.000000267000,  -1.60000,
,,,  -0.000000266000,  -1.60000,
,,,  -0.000000265000,  -1.60000,
Source,CH1,,  -0.000000264000,  -1.60000,
Vertical Units,V,,  -0.000000263000,  -1.60000,
Vertical Scale,1.000000e+01,,  -0.000000262000,  -1.60000,
Vertical Offset,0.000000e+00,,  -0.000000261000,  -1.60000,
Horizontal Units,s,,  -0.000000260000,  -1.60000,
Horizontal Scale,2.500000e-07,,  -0.000000259000,  -1.60000,
Pt Fmt,Y,,  -0.000000258000,  -1.60000,
Yzero,0.000000e+00,,  -0.000000257000,  -1.60000,
Probe Atten,1.000000e+01,,  -0.000000256000,  -1.60000,
Model Number,TDS1012B,,  -0.000000255000,  -2.00000,
Serial Number,C063631,,  -0.000000254000,  -1.60000,
Firmware Version,FV:v22.01,,  -0.000000253000,  -1.60000,
,,,-00.000000252000,  -1.60000,
,,,-00.000000251000,  -1.20000,
,,,-00.000000250000,  -1.20000,
,,,-00.000000249000,  -1.20000,
,,,-00.000000248000,  -1.60000,
,,,-00.000000247000,  -1.60000,
,,,-00.000000246000,  -1.20000,
,,,-00.000000245000,  -1.60000,
,,,-00.000000244000,  -1.20000,
,,,-00.000000243000,  -1.60000,
,,,-00.000000242000,  -1.20000,
,,,-00.000000241000,  -2.00000,
,,,-00.000000240000,  -1.20000,
,,,-00.000000239000,  -1.60000,
,,,-00.000000238000,  -1.60000,
,,,-00.000000237000,  -2.00000,
,,,-00.000000236000,  -1.60000,
,,,-00.000000235000,  -0.80000,
,,,-00.000000234000,  -1.60000,
,,,-00.000000233000,  -1.60000,
,,,-00.000000232000,  -1.20000,
,,,-00.000000231000,  -1.60000,
,,,-00.000000230000,  -1.60000,
,,,-00.000000229000,  -1.60000,
,,,-00.000000228000,  -1.20000,
,,,-00.000000227000,  -1.60000,
,,,-00.000000226000,  -1.60000,
,,,-00.000000225000,  -1.20000,
,,,-00.000000224000,  -1.60000,
,,,-00.000000223000,  -1.20000,
,,,-00.000000222000,  -1.60000,
,,,-00.000000221000,  -1.20000,
,,,-00.000000220000,  -1.20000,
,,,-00.000000219000,  -0.80000,
,,,-00.000000218000,  -1.20000,
,,,-00.000000217000,  -2.40000,
,,,-00.000000216000,  -1.60000,
,,,-00.000000215000,  -1.20000,
,,,-00.000000214000,  -1.20000,
,,,-00.000000213000,  -1.20000,
,,,-00.000000212000,  -1.60000,
,,,-00.000000211000,  -1.20000,
,,,-00.000000210000,  -1.60000,
,,,-00.000000209000,  -1.60000,
,,,-00.000000208000,  -1.20000,
,,,-00.000000207000,  -1.20000,
,,,-00.000000206000,  -1.60000,
,,,-00.000000205000,  -1.20000,
,,,-00.000000204000,  -2.00000,
,,,-00.000000203000,  -2.00000,
,,,-00.000000202000,  -1.20000,
,,,-00.000000201000,  -1.20000,
,,,-00.000000200000,  -1.60000,
,,,-00.000000199000,  -1.60000,
,,,-00.000000198000,  -1.60000,
,,,-00.000000197000,  -2.00000,
,,,-00.000000196000,  -1.60000,
,,,-00.000000195000,  -1.60000,
,,,-00.000000194000,  -2.00000,
,,,-00.000000193000,  -1.60000,
,,,-00.000000192000,  -1.60000,
,,,-00.000000191000,  -1.60000,
,,,-00.000000190000,  -2.40000,
,,,-00.000000189000,  -1.60000,
,,,-00.000000188000,  -1.60000,
,,,-00.000000187000,  -2.00000,
,,,-00.000000186000,  -1.60000,
,,,-00.000000185000,  -1.60000,
,,,-00.000000184000,  -1.20000,
,,,-00.000000183000,  -1.60000,
,,,-00.000000182000,  -1.20000,
,,,-00.000000181000,  -2.00000,
,,,-00.000000180000,  -1.60000,
,,,-00.000000179000,  -1.20000,
,,,-00.000000178000,  -1.20000,
,,,-00.000000177000,  -1.20000,
,,,-00.000000176000,  -1.60000,
,,,-00.000000175000,  -1.20000,
,,,-00.000000174000,  -1.60000,
,,,-00.000000173000,  -1.20000,
,,,-00.000000172000,  -1.60000,
,,,-00.000000171000,  -1.20000,
,,,-00.000000170000,  -1.20000,
,,,-00.000000169000,  -1.60000,
,,,-00.000000168000,  -1.60000,
,,,-00.000000167000,  -1.60000,
,,,-00.000000166000,  -1.60000,
,,,-00.000000165000,  -1.60000,
,,,-00.000000164000,  -1.60000,
,,,-00.000000163000,  -1.60000,
,,,-00.000000162000,  -1.20000,
,,,-00.000000161000,  -1.60000,
,,,-00.000000160000,  -1.20000,
,,,-00.000000159000,  -2.00000,
,,,-00.000000158000,  -1.60000,
,,,-00.000000157000,  -1.60000,
,,,-00.000000156000,  -1.60000,
,,,-00.000000155000,  -1.60000,
,,,-00.000000154000,  -1.20000,
,,,-00.000000153000,  -1.60000,
,,,-00.000000152000,  -0.80000,
,,,-00.000000151000,  -1.60000,
,,,-00.000000150000,  -1.20000,
,,,-00.000000149000,  -1.60000,
,,,-00.000000148000,  -1.60000,
,,,-00.000000147000,  -1.20000,
,,,-00.000000146000,  -1.60000,
,,,-00.000000145000,  -1.60000,
,,,-00.000000144000,  -1.60000,
,,,-00.000000143000,  -1.20000,
,,,-00.000000142000,  -1.60000,
,,,-00.000000141000,  -1.60000,
,,,-00.000000140000,  -1.60000,
,,,-00.000000139000,  -1.60000,
,,,-00.000000138000,  -1.60000,
,,,-00.000000137000,  -1.20000,
,,,-00.000000136000,  -1.20000,
,,,-00.000000135000,  -1.20000,
,,,-00.000000134000,  -1.20000,
,,,-00.000000133000,  -1.20000,
,,,-00.000000132000,  -1.60000,
,,,-00.000000131000,  -1.60000,
,,,-00.000000130000,  -1.20000,
,,,-00.000000129000,  -1.60000,
,,,-00.000000128000,  -1.60000,
,,,-00.000000127000,  -1.60000,
,,,-00.000000126000,  -1.60000,
,,,-00.000000125000,  -1.20000,
,,,-00.000000124000,  -1.60000,
,,,-00.000000123000,  -1.60000,
,,,-00.000000122000,  -1.60000,
,,,-00.000000121000,  -1.20000,
,,,-00.000000120000,  -1.60000,
,,,-00.000000119000,  -1.60000,
,,,-00.000000118000,  -1.20000,
,,,-00.000000117000,  -1.20000,
,,,-00.000000116000,  -1.60000,
,,,-00.000000115000,  -1.20000,
,,,-00.000000114000,  -2.00000,
,,,-00.000000113000,  -1.60000,
,,,-00.000000112000,  -1.60000,
,,,-00.000000111000,  -1.60000,
,,,-00.000000110000,  -2.00000,
,,,-00.000000109000,  -1.60000,
,,,-00.000000108000,  -1.60000,
,,,-00.000000107000,  -2.00000,
,,,-00.000000106000,  -1.60000,
,,,-00.000000105000,  -1.20000,
,,,-00.000000104000,  -1.60000,
,,,-00.000000103000,  -1.20000,
,,,-00.000000102000,  -1.20000,
,,,-00.000000101000,  -1.20000,
,,,-00.000000100000,  -1.20000,
,,,-00.000000099000,  -1.60000,
,,,-00.000000098000,  -2.00000,
,,,-00.000000097000,  -1.20000,
,,,-00.000000096000,  -1.60000,
,,,-00.000000095000,  -2.00000,
,,,-00.000000094000,  -1.60000,
,,,-00.000000093000,  -2.00000,
,,,-00.000000092000,  -1.60000,
,,,-00.000000091000,  -1.60000,
,,,-00.000000090000,  -1.20000,
,,,-00.000000089000,  -1.60000,
,,,-00.000000088000,  -1.60000,
,,,-00.000000087000,  -1.60000,
,,,-00.000000086000,  -2.00000,
,,,-00.000000085000,  -0.80000,
,,,-00.000000084000,  -1.20000,
,,,-00.000000083000,  -1.20000,
,,,-00.000000082000,  -1.20000,
,,,-00.000000081000,  -1.60000,
,,,-00.000000080000,  -1.60000,
,,,-00.000000079000,  -1.20000,
,,,-00.000000078000,  -1.20000,
,,,-00.000000077000,  -1.60000,
,,,-00.000000076000,  -1.60000,
,,,-00.000000075000,  -1.60000,
,,,-00.000000074000,  -1.60000,
,,,-00.000000073000,  -1.60000,
,,,-00.000000072000,  -1.60000,
,,,-00.000000071000,  -1.60000,
,,,-00.000000070000,  -0.80000,
,,,-00.000000069000,  -1.60000,
,,,-00.000000068000,  -1.60000,
,,,-00.000000067000,  -1.60000,
,,,-00.000000066000,  -1.60000,
,,,-00.000000065000,  -1.60000,
,,,-00.000000064000,  -1.60000,
,,,-00.000000063000,  -1.20000,
,,,-00.000000062000,  -1.20000,
,,,-00.000000061000,  -0.80000,
,,,-00.000000060000,  -1.60000,
,,,-00.000000059000,  -1.60000,
,,,-00.000000058000,  -1.20000,
,,,-00.000000057000,  -1.60000,
,,,-00.000000056000,  -2.00000,
,,,-00.000000055000,  -1.20000,
,,,-00.000000054000,  -1.60000,
,,,-00.000000053000,  -0.80000,
,,,-00.000000052000,  -1.60000,
,,,-00.000000051000,  -1.20000,
,,,-00.000000050000,  -1.20000,
,,,-00.000000049000,  -1.20000,
,,,-00.000000048000,  -1.60000,
,,,-00.000000047000,  -1.60000,
,,,-00.000000046000,  -2.00000,
,,,-00.000000045000,  -1.20000,
,,,-00.000000044000,  -1.20000,
,,,-00.000000043000,  -2.00000,
,,,-00.000000042000,  -1.20000,
,,,-00.000000041000,  -1.60000,
,,,-00.000000040000,  -1.60000,
,,,-00.000000039000,  -1.20000,
,,,-00.000000038000,  -1.20000,
,,,-00.000000037000,  -1.60000,
,,,-00.000000036000,  -1.60000,
,,,-00.000000035000,  -1.20000,
,,,-00.000000034000,  -1.60000,
,,,-00.000000033000,  -1.20000,
,,,-00.000000032000,  -1.60000,
,,,-00.000000031000,  -1.20000,
,,,-00.000000030000,  -1.20000,
,,,-00.000000029000,  -1.60000,
,,,-00.000000028000,  -1.60000,
,,,-00.000000027000,  -1.20000,
,,,-00.000000026000,  -1.60000,
,,,-00.000000025000,  -1.60000,
,,,-00.000000024000,  -1.60000,
,,,-00.000000023000,  -1.60000,
,,,-00.000000022000,  -1.20000,
,,,-00.000000021000,  -1.60000,
,,,-00.000000020000,  -1.60000,
,,,-00.000000019000,  -1.60000,
,,,-00.000000018000,  -1.20000,
,,,-00.000000017000,  -2.00000,
,,,-00.000000016000,  -1.20000,
,,,-00.000000015000,  -1.20000,
,,,-00.000000014000,  -2.00000,
,,,-00.000000013000,  -1.20000,
,,,-00.000000012000,  -1.20000,
,,,-00.000000011000,  -1.60000,
,,,-00.000000010000,  -1.60000,
,,,-00.000000009000,  -1.20000,
,,,-00.000000008000,  -1.20000,
,,,-00.000000007000,  -1.20000,
,,,-00.000000006000,  -1.20000,
,,,-00.000000005000,  -1.60000,
,,,-00.000000004000,  -1.20000,
,,,-00.000000003000,  -0.80000,
,,,-00.000000002000,  -1.20000,
,,,-00.000000001000,  -1.60000,
,,,-00.000000000000,  -1.20000,
,,,00.000000001000,   0.40000,
,,,00.000000002000,   2.40000,
,,,00.000000003000,   6.00000,
,,,00.000000004000,   9.20000,
,,,00.000000005000,  12.00000,
,,,00.000000006000,  14.00000,
,,,00.000000007000,  15.60000,
,,,00.000000008000,  17.20000,
,,,00.000000009000,  18.00000,
,,,00.000000010000,  18.00000,
,,,00.000000011000,  18.00000,
,,,00.000000012000,  18.40000,
,,,00.000000013000,  19.20000,
,,,00.000000014000,  19.60000,
,,,00.000000015000,  18.80000,
,,,00.000000016000,  19.20000,
,,,00.000000017000,  19.60000,
,,,00.000000018000,  19.20000,
,,,00.000000019000,  19.20000,
,,,00.000000020000,  19.20000,
,,,00.000000021000,  19.20000,
,,,00.000000022000,  18.80000,
,,,00.000000023000,  19.60000,
,,,00.000000024000,  19.20000,
,,,00.000000025000,  19.20000,
,,,00.000000026000,  19.60000,
,,,00.000000027000,  19.60000,
,,,00.000000028000,  19.60000,
,,,00.000000029000,  19.60000,
,,,00.000000030000,  19.60000,
,,,00.000000031000,  19.20000,
,,,00.000000032000,  19.20000,
,,,00.000000033000,  19.60000,
,,,00.000000034000,  18.80000,
,,,00.000000035000,  19.60000,
,,,00.000000036000,  19.60000,
,,,00.000000037000,  19.60000,
,,,00.000000038000,  19.60000,
,,,00.000000039000,  19.60000,
,,,00.000000040000,  19.20000,
,,,00.000000041000,  19.60000,
,,,00.000000042000,  19.60000,
,,,00.000000043000,  19.20000,
,,,00.000000044000,  19.20000,
,,,00.000000045000,  19.20000,
,,,00.000000046000,  19.20000,
,,,00.000000047000,  19.20000,
,,,00.000000048000,  19.60000,
,,,00.000000049000,  19.20000,
,,,00.000000050000,  19.20000,
,,,00.000000051000,  20.00000,
,,,00.000000052000,  19.60000,
,,,00.000000053000,  19.20000,
,,,00.000000054000,  19.60000,
,,,00.000000055000,  19.20000,
,,,00.000000056000,  19.60000,
,,,00.000000057000,  19.60000,
,,,00.000000058000,  19.20000,
,,,00.000000059000,  19.20000,
,,,00.000000060000,  19.60000,
,,,00.000000061000,  19.20000,
,,,00.000000062000,  19.20000,
,,,00.000000063000,  19.60000,
,,,00.000000064000,  19.60000,
,,,00.000000065000,  19.60000,
,,,00.000000066000,  19.20000,
,,,00.000000067000,  19.60000,
,,,00.000000068000,  19.60000,
,,,00.000000069000,  20.00000,
,,,00.000000070000,  20.00000,
,,,00.000000071000,  20.00000,
,,,00.000000072000,  20.00000,
,,,00.000000073000,  19.60000,
,,,00.000000074000,  19.60000,
,,,00.000000075000,  20.00000,
,,,00.000000076000,  19.60000,
,,,00.000000077000,  19.60000,
,,,00.000000078000,  20.00000,
,,,00.000000079000,  19.60000,
,,,00.000000080000,  20.00000,
,,,00.000000081000,  19.60000,
,,,00.000000082000,  19.60000,
,,,00.000000083000,  19.60000,
,,,00.000000084000,  19.20000,
,,,00.000000085000,  19.60000,
,,,00.000000086000,  19.60000,
,,,00.000000087000,  19.20000,
,,,00.000000088000,  19.60000,
,,,00.000000089000,  19.60000,
,,,00.000000090000,  20.00000,
,,,00.000000091000,  19.20000,
,,,00.000000092000,  19.60000,
,,,00.000000093000,  19.60000,
,,,00.000000094000,  19.60000,
,,,00.000000095000,  19.60000,
,,,00.000000096000,  20.00000,
,,,00.000000097000,  20.00000,
,,,00.000000098000,  19.60000,
,,,00.000000099000,  19.60000,
,,,00.000000100000,  19.60000,
,,,00.000000101000,  19.60000,
,,,00.000000102000,  20.40000,
,,,00.000000103000,  21.20000,
,,,00.000000104000,  22.00000,
,,,00.000000105000,  22.80000,
,,,00.000000106000,  23.60000,
,,,00.000000107000,  24.40000,
,,,00.000000108000,  25.20000,
,,,00.000000109000,  25.20000,
,,,00.000000110000,  25.60000,
,,,00.000000111000,  26.00000,
,,,00.000000112000,  26.40000,
,,,00.000000113000,  26.80000,
,,,00.000000114000,  26.80000,
,,,00.000000115000,  27.20000,
,,,00.000000116000,  27.20000,
,,,00.000000117000,  27.20000,
,,,00.000000118000,  26.80000,
,,,00.000000119000,  26.80000,
,,,00.000000120000,  26.40000,
,,,00.000000121000,  26.80000,
,,,00.000000122000,  27.20000,
,,,00.000000123000,  27.20000,
,,,00.000000124000,  26.80000,
,,,00.000000125000,  26.80000,
,,,00.000000126000,  27.20000,
,,,00.000000127000,  27.20000,
,,,00.000000128000,  27.20000,
,,,00.000000129000,  26.80000,
,,,00.000000130000,  26.80000,
,,,00.000000131000,  27.20000,
,,,00.000000132000,  27.20000,
,,,00.000000133000,  26.80000,
,,,00.000000134000,  26.80000,
,,,00.000000135000,  27.20000,
,,,00.000000136000,  26.80000,
,,,00.000000137000,  26.80000,
,,,00.000000138000,  26.80000,
,,,00.000000139000,  26.80000,
,,,00.000000140000,  26.40000,
,,,00.000000141000,  26.80000,
,,,00.000000142000,  26.80000,
,,,00.000000143000,  26.80000,
,,,00.000000144000,  26.80000,
,,,00.000000145000,  27.20000,
,,,00.000000146000,  26.80000,
,,,00.000000147000,  26.80000,
,,,00.000000148000,  26.80000,
,,,00.000000149000,  26.80000,
,,,00.000000150000,  26.80000,
,,,00.000000151000,  26.80000,
,,,00.000000152000,  27.20000,
,,,00.000000153000,  26.80000,
,,,00.000000154000,  26.80000,
,,,00.000000155000,  26.80000,
,,,00.000000156000,  26.80000,
,,,00.000000157000,  26.80000,
,,,00.000000158000,  26.40000,
,,,00.000000159000,  26.40000,
,,,00.000000160000,  26.40000,
,,,00.000000161000,  26.80000,
,,,00.000000162000,  26.40000,
,,,00.000000163000,  26.80000,
,,,00.000000164000,  26.80000,
,,,00.000000165000,  26.80000,
,,,00.000000166000,  26.80000,
,,,00.000000167000,  26.80000,
,,,00.000000168000,  26.80000,
,,,00.000000169000,  26.80000,
,,,00.000000170000,  26.80000,
,,,00.000000171000,  26.80000,
,,,00.000000172000,  26.80000,
,,,00.000000173000,  26.80000,
,,,00.000000174000,  26.80000,
,,,00.000000175000,  26.80000,
,,,00.000000176000,  26.40000,
,,,00.000000177000,  26.80000,
,,,00.000000178000,  26.80000,
,,,00.000000179000,  26.80000,
,,,00.000000180000,  26.80000,
,,,00.000000181000,  26.40000,
,,,00.000000182000,  26.40000,
,,,00.000000183000,  26.80000,
,,,00.000000184000,  26.40000,
,,,00.000000185000,  26.40000,
,,,00.000000186000,  26.00000,
,,,00.000000187000,  26.40000,
,,,00.000000188000,  26.80000,
,,,00.000000189000,  26.40000,
,,,00.000000190000,  26.40000,
,,,00.000000191000,  26.80000,
,,,00.000000192000,  26.80000,
,,,00.000000193000,  26.40000,
,,,00.000000194000,  27.20000,
,,,00.000000195000,  26.40000,
,,,00.000000196000,  26.80000,
,,,00.000000197000,  26.40000,
,,,00.000000198000,  26.40000,
,,,00.000000199000,  26.40000,
,,,00.000000200000,  26.40000,
,,,00.000000201000,  26.40000,
,,,00.000000202000,  26.40000,
,,,00.000000203000,  26.00000,
,,,00.000000204000,  26.40000,
,,,00.000000205000,  26.40000,
,,,00.000000206000,  26.40000,
,,,00.000000207000,  26.40000,
,,,00.000000208000,  26.00000,
,,,00.000000209000,  26.00000,
,,,00.000000210000,  26.00000,
,,,00.000000211000,  26.40000,
,,,00.000000212000,  26.80000,
,,,00.000000213000,  26.80000,
,,,00.000000214000,  26.80000,
,,,00.000000215000,  26.40000,
,,,00.000000216000,  26.40000,
,,,00.000000217000,  26.00000,
,,,00.000000218000,  26.40000,
,,,00.000000219000,  26.00000,
,,,00.000000220000,  26.00000,
,,,00.000000221000,  26.40000,
,,,00.000000222000,  26.00000,
,,,00.000000223000,  25.60000,
,,,00.000000224000,  26.40000,
,,,00.000000225000,  26.40000,
,,,00.000000226000,  26.40000,
,,,00.000000227000,  26.40000,
,,,00.000000228000,  26.40000,
,,,00.000000229000,  26.00000,
,,,00.000000230000,  26.00000,
,,,00.000000231000,  25.60000,
,,,00.000000232000,  26.40000,
,,,00.000000233000,  26.00000,
,,,00.000000234000,  26.40000,
,,,00.000000235000,  26.00000,
,,,00.000000236000,  26.40000,
,,,00.000000237000,  26.00000,
,,,00.000000238000,  26.00000,
,,,00.000000239000,  26.00000,
,,,00.000000240000,  26.40000,
,,,00.000000241000,  26.00000,
,,,00.000000242000,  26.40000,
,,,00.000000243000,  26.00000,
,,,00.000000244000,  26.00000,
,,,00.000000245000,  26.00000,
,,,00.000000246000,  26.00000,
,,,00.000000247000,  25.60000,
,,,00.000000248000,  25.60000,
,,,00.000000249000,  26.00000,
,,,00.000000250000,  26.00000,
,,,00.000000251000,  26.00000,
,,,00.000000252000,  26.00000,
,,,00.000000253000,  26.00000,
,,,00.000000254000,  26.00000,
,,,00.000000255000,  26.00000,
,,,00.000000256000,  25.60000,
,,,00.000000257000,  25.60000,
,,,00.000000258000,  26.00000,
,,,00.000000259000,  25.60000,
,,,00.000000260000,  25.60000,
,,,00.000000261000,  25.60000,
,,,00.000000262000,  26.00000,
,,,00.000000263000,  25.60000,
,,,00.000000264000,  26.00000,
,,,00.000000265000,  26.00000,
,,,00.000000266000,  26.00000,
,,,00.000000267000,  25.60000,
,,,00.000000268000,  26.00000,
,,,00.000000269000,  26.40000,
,,,00.000000270000,  26.00000,
,,,00.000000271000,  25.60000,
,,,00.000000272000,  25.60000,
,,,00.000000273000,  25.60000,
,,,00.000000274000,  26.00000,
,,,00.000000275000,  26.00000,
,,,00.000000276000,  25.60000,
,,,00.000000277000,  26.00000,
,,,00.000000278000,  25.60000,
,,,00.000000279000,  25.20000,
,,,00.000000280000,  26.00000,
,,,00.000000281000,  25.60000,
,,,00.000000282000,  25.60000,
,,,00.000000283000,  25.60000,
,,,00.000000284000,  25.20000,
,,,00.000000285000,  25.60000,
,,,00.000000286000,  25.60000,
,,,00.000000287000,  25.60000,
,,,00.000000288000,  25.60000,
,,,00.000000289000,  25.60000,
,,,00.000000290000,  25.60000,
,,,00.000000291000,  25.20000,
,,,00.000000292000,  25.60000,
,,,00.000000293000,  25.60000,
,,,00.000000294000,  25.60000,
,,,00.000000295000,  25.60000,
,,,00.000000296000,  25.60000,
,,,00.000000297000,  25.20000,
,,,00.000000298000,  25.20000,
,,,00.000000299000,  25.60000,
,,,00.000000300000,  25.60000,
,,,00.000000301000,  25.60000,
,,,00.000000302000,  25.20000,
,,,00.000000303000,  25.20000,
,,,00.000000304000,  24.80000,
,,,00.000000305000,  25.60000,
,,,00.000000306000,  25.60000,
,,,00.000000307000,  25.60000,
,,,00.000000308000,  25.20000,
,,,00.000000309000,  25.60000,
,,,00.000000310000,  25.60000,
,,,00.000000311000,  25.60000,
,,,00.000000312000,  25.60000,
,,,00.000000313000,  26.00000,
,,,00.000000314000,  24.80000,
,,,00.000000315000,  25.20000,
,,,00.000000316000,  25.60000,
,,,00.000000317000,  25.20000,
,,,00.000000318000,  25.20000,
,,,00.000000319000,  24.80000,
,,,00.000000320000,  25.60000,
,,,00.000000321000,  25.20000,
,,,00.000000322000,  25.20000,
,,,00.000000323000,  25.20000,
,,,00.000000324000,  25.60000,
,,,00.000000325000,  25.20000,
,,,00.000000326000,  25.20000,
,,,00.000000327000,  25.60000,
,,,00.000000328000,  24.80000,
,,,00.000000329000,  25.20000,
,,,00.000000330000,  25.20000,
,,,00.000000331000,  24.80000,
,,,00.000000332000,  25.20000,
,,,00.000000333000,  25.20000,
,,,00.000000334000,  24.40000,
,,,00.000000335000,  25.20000,
,,,00.000000336000,  25.20000,
,,,00.000000337000,  25.20000,
,,,00.000000338000,  24.80000,
,,,00.000000339000,  25.20000,
,,,00.000000340000,  25.20000,
,,,00.000000341000,  25.20000,
,,,00.000000342000,  25.20000,
,,,00.000000343000,  25.20000,
,,,00.000000344000,  25.20000,
,,,00.000000345000,  25.60000,
,,,00.000000346000,  24.80000,
,,,00.000000347000,  25.20000,
,,,00.000000348000,  24.80000,
,,,00.000000349000,  24.80000,
,,,00.000000350000,  24.40000,
,,,00.000000351000,  25.20000,
,,,00.000000352000,  24.80000,
,,,00.000000353000,  24.80000,
,,,00.000000354000,  24.80000,
