v52/oszi_bilder/ALL0058/F0058CH1.CSV

Record Length,2.500000e+03,,  -0.000000270000, -20.40000,
Sample Interval,1.000000e-09,,  -0.000000269000, -20.40000,
Trigger Point,2.700000000000e+02,,  -0.000000268000, -20.80000,
,,,  -0.000000267000, -20.40000,
,,,  -0.000000266000, -20.80000,
,,,  -0.000000265000, -20.40000,
Source,CH1,,  -0.000000264000, -21.20000,
Vertical Units,V,,  -0.000000263000, -20.80000,
Vertical Scale,1.000000e+01,,  -0.000000262000, -20.40000,
Vertical Offset,0.000000e+00,,  -0.000000261000, -20.80000,
Horizontal Units,s,,  -0.000000260000, -20.80000,
Horizontal Scale,2.500000e-07,,  -0.000000259000, -21.20000,
Pt Fmt,Y,,  -0.000000258000, -20.40000,
Yzero,0.000000e+00,,  -0.000000257000, -21.20000,
Probe Atten,1.000000e+01,,  -0.000000256000, -20.80000,
Model Number,TDS1012B,,  -0.000000255000, -21.20000,
Serial Number,C063631,,  -0.000000254000, -20.80000,
Firmware Version,FV:v22.01,,  -0.000000253000, -21.20000,
,,,-00.000000252000, -20.80000,
,,,-00.000000251000, -20.80000,
,,,-00.000000250000, -20.80000,
,,,-00.000000249000, -20.80000,
,,,-00.000000248000, -20.40000,
,,,-00.000000247000, -20.40000,
,,,-00.000000246000, -20.40000,
,,,-00.000000245000, -20.40000,
,,,-00.000000244000, -20.80000,
,,,-00.000000243000, -20.40000,
,,,-00.000000242000, -20.40000,
,,,-00.000000241000, -21.20000,
,,,-00.000000240000, -20.80000,
,,,-00.000000239000, -20.40000,
,,,-00.000000238000, -21.20000,
,,,-00.000000237000, -21.20000,
,,,-00.000000236000, -20.80000,
,,,-00.000000235000, -20.80000,
,,,-00.000000234000, -21.20000,
,,,-00.000000233000, -20.80000,
,,,-00.000000232000, -20.40000,
,,,-00.000000231000, -20.80000,
,,,-00.000000230000, -20.80000,
,,,-00.000000229000, -21.20000,
,,,-00.000000228000, -20.80000,
,,,-00.000000227000, -20.80000,
,,,-00.000000226000, -20.80000,
,,,-00.000000225000, -20.80000,
,,,-00.000000224000, -20.40000,
,,,-00.000000223000, -20.40000,
,,,-00.000000222000, -20.40000,
,,,-00.000000221000, -20.80000,
,,,-00.000000220000, -20.80000,
,,,-00.000000219000, -20.40000,
,,,-00.000000218000, -20.00000,
,,,-00.000000217000, -20.40000,
,,,-00.000000216000, -20.80000,
,,,-00.000000215000, -21.20000,
,,,-00.000000214000, -20.80000,
,,,-00.000000213000, -21.20000,
,,,-00.000000212000, -20.40000,
,,,-00.000000211000, -20.40000,
,,,-00.000000210000, -20.80000,
,,,-00.000000209000, -20.40000,
,,,-00.000000208000, -20.80000,
,,,-00.000000207000, -20.40000,
,,,-00.000000206000, -20.80000,
,,,-00.000000205000, -20.00000,
,,,-00.000000204000, -20.40000,
,,,-00.000000203000, -20.80000,
,,,-00.000000202000, -20.40000,
,,,-00.000000201000, -21.20000,
,,,-00.000000200000, -20.40000,
,,,-00.000000199000, -20.40000,
,,,-00.000000198000, -20.00000,
,,,-00.000000197000, -20.80000,
,,,-00.000000196000, -20.80000,
,,,-00.000000195000, -20.80000,
,,,-00.000000194000, -20.40000,
,,,-00.000000193000, -20.40000,
,,,-00.000000192000, -20.40000,
,,,-00.000000191000, -20.80000,
,,,-00.000000190000, -20.40000,
,,,-00.000000189000, -20.40000,
,,,-00.000000188000, -20.80000,
,,,-00.000000187000, -20.40000,
,,,-00.000000186000, -21.20000,
,,,-00.000000185000, -20.80000,
,,,-00.000000184000, -20.40000,
,,,-00.000000183000, -20.40000,
,,,-00.000000182000, -20.80000,
,,,-00.000000181000, -20.80000,
,,,-00.000000180000, -20.80000,
,,,-00.000000179000, -20.80000,
,,,-00.000000178000, -20.40000,
,,,-00.000000177000, -20.40000,
,,,-00.000000176000, -20.40000,
,,,-00.000000175000, -20.80000,
,,,-00.000000174000, -20.80000,
,,,-00.000000173000, -20.40000,
,,,-00.000000172000, -20.80000,
,,,-00.000000171000, -20.80000,
,,,-00.000000170000, -20.80000,
,,,-00.000000169000, -21.20000,
,,,-00.000000168000, -20.40000,
,,,-00.000000167000, -20.80000,
,,,-00.000000166000, -20.80000,
,,,-00.000000165000, -20.80000,
,,,-00.000000164000, -20.80000,
,,,-00.000000163000, -20.80000,
,,,-00.000000162000, -20.80000,
,,,-00.000000161000, -20.80000,
,,,-00.000000160000, -20.80000,
,,,-00.000000159000, -20.80000,
,,,-00.000000158000, -20.80000,
,,,-00.000000157000, -20.40000,
,,,-00.000000156000, -20.80000,
,,,-00.000000155000, -20.80000,
,,,-00.000000154000, -20.40000,
,,,-00.000000153000, -20.40000,
,,,-00.000000152000, -20.40000,
,,,-00.000000151000, -20.80000,
,,,-00.000000150000, -20.40000,
,,,-00.000000149000, -20.80000,
,,,-00.000000148000, -20.40000,
,,,-00.000000147000, -20.80000,
,,,-00.000000146000, -20.80000,
,,,-00.000000145000, -20.40000,
,,,-00.000000144000, -20.80000,
,,,-00.000000143000, -20.80000,
,,,-00.000000142000, -20.40000,
,,,-00.000000141000, -20.80000,
,,,-00.000000140000, -20.00000,
,,,-00.000000139000, -20.80000,
,,,-00.000000138000, -20.40000,
,,,-00.000000137000, -20.40000,
,,,-00.000000136000, -20.40000,
,,,-00.000000135000, -21.20000,
,,,-00.000000134000, -21.20000,
,,,-00.000000133000, -20.80000,
,,,-00.000000132000, -21.20000,
,,,-00.000000131000, -20.40000,
,,,-00.000000130000, -20.80000,
,,,-00.000000129000, -20.80000,
,,,-00.000000128000, -20.40000,
,,,-00.000000127000, -20.40000,
,,,-00.000000126000, -20.40000,
,,,-00.000000125000, -20.80000,
,,,-00.000000124000, -20.80000,
,,,-00.000000123000, -20.40000,
,,,-00.000000122000, -20.80000,
,,,-00.000000121000, -20.80000,
,,,-00.000000120000, -20.80000,
,,,-00.000000119000, -20.80000,
,,,-00.000000118000, -20.40000,
,,,-00.000000117000, -20.80000,
,,,-00.000000116000, -20.40000,
,,,-00.000000115000, -20.40000,
,,,-00.000000114000, -20.80000,
,,,-00.000000113000, -20.80000,
,,,-00.000000112000, -20.80000,
,,,-00.000000111000, -20.40000,
,,,-00.000000110000, -20.80000,
,,,-00.000000109000, -20.80000,
,,,-00.000000108000, -20.80000,
,,,-00.000000107000, -20.80000,
,,,-00.000000106000, -20.00000,
,,,-00.000000105000, -20.40000,
,,,-00.000000104000, -20.80000,
,,,-00.000000103000, -20.40000,
,,,-00.000000102000, -20.80000,
,,,-00.000000101000, -19.60000,
,,,-00.000000100000, -19.60000,
,,,-00.000000099000, -17.20000,
,,,-00.000000098000, -14.40000,
,,,-00.000000097000, -11.20000,
,,,-00.000000096000,  -8.00000,
,,,-00.000000095000,  -5.60000,
,,,-00.000000094000,  -4.00000,
,,,-00.000000093000,  -2.40000,
,,,-00.000000092000,  -1.20000,
,,,-00.000000091000,  -1.20000,
,,,-00.000000090000,  -0.80000,
,,,-00.000000089000,  -0.40000,
,,,-00.000000088000,   0.00000,
,,,-00.000000087000,  -0.40000,
,,,-00.000000086000,  -0.40000,
,,,-00.000000085000,   0.40000,
,,,-00.000000084000,   0.00000,
,,,-00.000000083000,   0.00000,
,,,-00.000000082000,   0.00000,
,,,-00.000000081000,   0.00000,
,,,-00.000000080000,   0.00000,
,,,-00.000000079000,   0.40000,
,,,-00.000000078000,   0.40000,
,,,-00.000000077000,   0.00000,
,,,-00.000000076000,   0.00000,
,,,-00.000000075000,   0.00000,
,,,-00.000000074000,   0.00000,
,,,-00.000000073000,   0.00000,
,,,-00.000000072000,   0.00000,
,,,-00.000000071000,   0.00000,
,,,-00.000000070000,   0.00000,
,,,-00.000000069000,   0.40000,
,,,-00.000000068000,  -0.40000,
,,,-00.000000067000,   0.40000,
,,,-00.000000066000,   0.40000,
,,,-00.000000065000,   0.00000,
,,,-00.000000064000,   0.40000,
,,,-00.000000063000,   0.00000,
,,,-00.000000062000,   0.40000,
,,,-00.000000061000,   0.40000,
,,,-00.000000060000,   0.00000,
,,,-00.000000059000,   0.00000,
,,,-00.000000058000,   0.00000,
,,,-00.000000057000,  -0.40000,
,,,-00.000000056000,   0.00000,
,,,-00.000000055000,   0.40000,
,,,-00.000000054000,   0.00000,
,,,-00.000000053000,   0.00000,
,,,-00.000000052000,   0.40000,
,,,-00.000000051000,   0.40000,
,,,-00.000000050000,   0.40000,
,,,-00.000000049000,   0.40000,
,,,-00.000000048000,   0.40000,
,,,-00.000000047000,   0.40000,
,,,-00.000000046000,   0.40000,
,,,-00.000000045000,   0.80000,
,,,-00.000000044000,   0.00000,
,,,-00.000000043000,   0.00000,
,,,-00.000000042000,   0.00000,
,,,-00.000000041000,   0.40000,
,,,-00.000000040000,   0.40000,
,,,-00.000000039000,   0.80000,
,,,-00.000000038000,   0.00000,
,,,-00.000000037000,   0.40000,
,,,-00.000000036000,   0.40000,
,,,-00.000000035000,   0.00000,
,,,-00.000000034000,   0.00000,
,,,-00.000000033000,   0.40000,
,,,-00.000000032000,   0.80000,
,,,-00.000000031000,   0.40000,
,,,-00.000000030000,   0.00000,
,,,-00.000000029000,   0.00000,
,,,-00.000000028000,   0.00000,
,,,-00.000000027000,   0.00000,
,,,-00.000000026000,   0.40000,
,,,-00.000000025000,   0.40000,
,,,-00.000000024000,   0.40000,
,,,-00.000000023000,   0.40000,
,,,-00.000000022000,   0.00000,
,,,-00.000000021000,   0.00000,
,,,-00.000000020000,   0.40000,
,,,-00.000000019000,   0.00000,
,,,-00.000000018000,   0.80000,
,,,-00.000000017000,   0.40000,
,,,-00.000000016000,   0.00000,
,,,-00.000000015000,   0.40000,
,,,-00.000000014000,   0.40000,
,,,-00.000000013000,   0.00000,
,,,-00.000000012000,   0.00000,
,,,-00.000000011000,   0.40000,
,,,-00.000000010000,   0.80000,
,,,-00.000000009000,   0.80000,
,,,-00.000000008000,   0.40000,
,,,-00.000000007000,   0.80000,
,,,-00.000000006000,   0.40000,
,,,-00.000000005000,   0.00000,
,,,-00.000000004000,   0.80000,
,,,-00.000000003000,   0.80000,
,,,-00.000000002000,   0.80000,
,,,-00.000000001000,   0.40000,
,,,-00.000000000000,   0.80000,
,,,00.000000001000,   1.60000,
,,,00.000000002000,   3.20000,
,,,00.000000003000,   4.80000,
,,,00.000000004000,   7.20000,
,,,00.000000005000,   9.60000,
,,,00.000000006000,  11.60000,
,,,00.000000007000,  13.20000,
,,,00.000000008000,  14.80000,
,,,00.000000009000,  15.20000,
,,,00.000000010000,  16.40000,
,,,00.000000011000,  17.20000,
,,,00.000000012000,  18.00000,
,,,00.000000013000,  18.00000,
,,,00.000000014000,  18.00000,
,,,00.000000015000,  18.80000,
,,,00.000000016000,  18.80000,
,,,00.000000017000,  18.80000,
,,,00.000000018000,  18.80000,
,,,00.000000019000,  19.20000,
,,,00.000000020000,  19.20000,
,,,00.000000021000,  19.20000,
,,,00.000000022000,  19.20000,
,,,00.000000023000,  19.20000,
,,,00.000000024000,  19.20000,
,,,00.000000025000,  19.20000,
,,,00.000000026000,  19.20000,
,,,00.000000027000,  19.60000,
,,,00.000000028000,  19.20000,
,,,00.000000029000,  19.20000,
,,,00.000000030000,  19.60000,
,,,00.000000031000,  19.20000,
,,,00.000000032000,  19.20000,
,,,00.000000033000,  19.20000,
,,,00.000000034000,  19.20000,
,,,00.000000035000,  20.00000,
,,,00.000000036000,  19.20000,
,,,00.000000037000,  19.60000,
,,,00.000000038000,  19.60000,
,,,00.000000039000,  20.00000,
,,,00.000000040000,  19.60000,
,,,00.000000041000,  20.00000,
,,,00.000000042000,  20.00000,
,,,00.000000043000,  19.20000,
,,,00.000000044000,  19.20000,
,,,00.000000045000,  19.60000,
,,,00.000000046000,  19.60000,
,,,00.000000047000,  19.60000,
,,,00.000000048000,  20.00000,
,,,00.000000049000,  20.40000,
,,,00.000000050000,  19.60000,
,,,00.000000051000,  19.60000,
,,,00.000000052000,  20.00000,
,,,00.000000053000,  20.00000,
,,,00.000000054000,  20.00000,
,,,00.000000055000,  20.00000,
,,,00.000000056000,  20.00000,
,,,00.000000057000,  20.00000,
,,,00.000000058000,  19.60000,
,,,00.000000059000,  20.00000,
,,,00.000000060000,  19.60000,
,,,00.000000061000,  19.60000,
,,,00.000000062000,  20.00000,
,,,00.000000063000,  20.00000,
,,,00.000000064000,  20.40000,
,,,00.000000065000,  19.60000,
,,,00.000000066000,  20.00000,
,,,00.000000067000,  20.00000,
,,,00.000000068000,  20.00000,
,,,00.000000069000,  20.40000,
,,,00.000000070000,  20.00000,
,,,00.000000071000,  19.60000,
,,,00.000000072000,  20.00000,
,,,00.000000073000,  20.00000,
,,,00.000000074000,  20.00000,
,,,00.000000075000,  20.00000,
,,,00.000000076000,  20.00000,
,,,00.000000077000,  20.40000,
,,,00.000000078000,  20.40000,
,,,00.000000079000,  20.40000,
,,,00.000000080000,  20.40000,
,,,00.000000081000,  20.40000,
,,,00.000000082000,  20.00000,
,,,00.000000083000,  20.00000,
,,,00.000000084000,  20.00000,
,,,00.000000085000,  20.40000,
,,,00.000000086000,  20.40000,
,,,00.000000087000,  20.40000,
,,,00.000000088000,  20.00000,
,,,00.000000089000,  20.00000,
,,,00.000000090000,  20.00000,
,,,00.000000091000,  20.40000,
,,,00.000000092000,  20.80000,
,,,00.000000093000,  20.40000,
,,,00.000000094000,  20.40000,
,,,00.000000095000,  20.40000,
,,,00.000000096000,  20.40000,
,,,00.000000097000,  20.80000,
,,,00.000000098000,  20.40000,
,,,00.000000099000,  20.80000,
,,,00.000000100000,  20.00000,
,,,00.000000101000,  20.40000,
,,,00.000000102000,  20.00000,
,,,00.000000103000,  20.00000,
,,,00.000000104000,  20.00000,
,,,00.000000105000,  19.60000,
,,,00.000000106000,  20.00000,
,,,00.000000107000,  19.60000,
,,,00.000000108000,  19.20000,
,,,00.000000109000,  20.00000,
,,,00.000000110000,  20.00000,
,,,00.000000111000,  19.60000,
,,,00.000000112000,  20.00000,
,,,00.000000113000,  20.00000,
,,,00.000000114000,  19.60000,
,,,00.000000115000,  20.00000,
,,,00.000000116000,  20.00000,
,,,00.000000117000,  20.00000,
,,,00.000000118000,  20.40000,
,,,00.000000119000,  20.80000,
,,,00.000000120000,  20.00000,
,,,00.000000121000,  20.00000,
,,,00.000000122000,  20.00000,
,,,00.000000123000,  20.00000,
,,,00.000000124000,  20.00000,
,,,00.000000125000,  20.00000,
,,,00.000000126000,  20.00000,
,,,00.000000127000,  20.00000,
,,,00.000000128000,  20.00000,
,,,00.000000129000,  19.60000,
,,,00.000000130000,  20.00000,
,,,00.000000131000,  20.40000,
,,,00.000000132000,  19.60000,
,,,00.000000133000,  20.00000,
,,,00.000000134000,  20.00000,
,,,00.000000135000,  20.00000,
,,,00.000000136000,  19.60000,
,,,00.000000137000,  20.00000,
,,,00.000000138000,  20.00000,
,,,00.000000139000,  20.00000,
,,,00.000000140000,  20.00000,
,,,00.000000141000,  19.60000,
,,,00.000000142000,  19.60000,
,,,00.000000143000,  19.60000,
,,,00.000000144000,  20.00000,
,,,00.000000145000,  19.60000,
,,,00.000000146000,  20.00000,
,,,00.000000147000,  19.60000,
,,,00.000000148000,  20.00000,
,,,00.000000149000,  20.00000,
,,,00.000000150000,  19.60000,
,,,00.000000151000,  20.00000,
,,,00.000000152000,  20.00000,
,,,00.000000153000,  20.40000,
,,,00.000000154000,  20.00000,
,,,00.000000155000,  20.00000,
,,,00.000000156000,  19.60000,
,,,00.000000157000,  20.00000,
,,,00.000000158000,  19.60000,
,,,00.000000159000,  20.40000,
,,,00.000000160000,  20.00000,
,,,00.000000161000,  20.00000,
,,,00.000000162000,  20.00000,
,,,00.000000163000,  20.00000,
,,,00.000000164000,  19.60000,
,,,00.000000165000,  20.00000,
,,,00.000000166000,  20.00000,
,,,00.000000167000,  20.00000,
,,,00.000000168000,  20.40000,
,,,00.000000169000,  19.60000,
,,,00.000000170000,  19.60000,
,,,00.000000171000,  20.00000,
,,,00.000000172000,  19.60000,
,,,00.000000173000,  20.00000,
,,,00.000000174000,  19.60000,
,,,00.000000175000,  20.00000,
,,,00.000000176000,  20.00000,
,,,00.000000177000,  20.40000,
,,,00.000000178000,  20.00000,
,,,00.000000179000,  20.00000,
,,,00.000000180000,  19.60000,
,,,00.000000181000,  19.60000,
,,,00.000000182000,  19.60000,
,,,00.000000183000,  19.60000,
,,,00.000000184000,  20.00000,
,,,00.000000185000,  20.00000,
,,,00.000000186000,  19.60000,
,,,00.000000187000,  19.60000,
,,,00.000000188000,  20.00000,
,,,00.000000189000,  19.60000,
,,,00.000000190000,  20.00000,
,,,00.000000191000,  20.40000,
,,,00.000000192000,  20.00000,
,,,00.000000193000,  20.00000,
,,,00.000000194000,  20.40000,
,,,00.000000195000,  20.00000,
,,,00.000000196000,  20.40000,
,,,00.000000197000,  20.00000,
,,,00.000000198000,  20.80000,
,,,00.000000199000,  20.00000,
,,,00.000000200000,  20.00000,
,,,00.000000201000,  19.60000,
,,,00.000000202000,  19.60000,
,,,00.000000203000,  20.00000,
,,,00.000000204000,  19.60000,
,,,00.000000205000,  20.00000,
,,,00.000000206000,  20.00000,
,,,00.000000207000,  19.60000,
,,,00.000000208000,  19.60000,
,,,00.000000209000,  19.60000,
,,,00.000000210000,  20.40000,
,,,00.000000211000,  20.00000,
,,,00.000000212000,  20.00000,
,,,00.000000213000,  19.60000,
,,,00.000000214000,  20.00000,
,,,00.000000215000,  20.40000,
,,,00.000000216000,  19.60000,
,,,00.000000217000,  20.00000,
,,,00.000000218000,  19.60000,
,,,00.000000219000,  19.60000,
,,,00.000000220000,  20.00000,
,,,00.000000221000,  20.00000,
,,,00.000000222000,  20.00000,
,,,00.000000223000,  19.60000,
,,,00.000000224000,  19.60000,
,,,00.000000225000,  20.40000,
,,,00.000000226000,  20.00000,
,,,00.000000227000,  20.00000,
,,,00.000000228000,  20.00000,
,,,00.000000229000,  20.00000,
,,,00.000000230000,  20.00000,
,,,00.000000231000,  19.60000,
,,,00.000000232000,  20.00000,
,,,00.000000233000,  19.60000,
,,,00.000000234000,  19.60000,
,,,00.000000235000,  20.00000,
,,,00.000000236000,  20.00000,
,,,00.000000237000,  19.60000,
,,,00.000000238000,  19.60000,
,,,00.000000239000,  20.00000,
,,,00.000000240000,  19.60000,
,,,00.000000241000,  19.60000,
,,,00.000000242000,  19.60000,
,,,00.000000243000,  19.60000,
,,,00.000000244000,  20.00000,
,,,00.000000245000,  19.60000,
,,,00.000000246000,  20.00000,
,,,00.000000247000,  20.40000,
,,,00.000000248000,  20.00000,
,,,00.000000249000,  20.00000,
,,,00.000000250000,  20.00000,
,,,00.000000251000,  20.00000,
,,,00.000000252000,  19.60000,
,,,00.000000253000,  20.40000,
,,,00.000000254000,  20.40000,
,,,00.000000255000,  20.40000,
,,,00.000000256000,  20.00000,
,,,00.000000257000,  19.60000,
,,,00.000000258000,  20.00000,
,,,00.000000259000,  20.00000,
,,,00.000000260000,  20.00000,
,,,00.000000261000,  20.00000,
,,,00.000000262000,  20.00000,
,,,00.000000263000,  19.60000,
,,,00.000000264000,  19.60000,
,,,00.000000265000,  20.00000,
,,,00.000000266000,  19.60000,
,,,00.000000267000,  19.60000,
,,,00.000000268000,  20.00000,
,,,00.000000269000,  19.20000,
,,,00.000000270000,  19.60000,
,,,00.000000271000,  19.20000,
,,,00.000000272000,  20.00000,
,,,00.000000273000,  19.60000,
,,,00.000000274000,  19.60000,
,,,00.000000275000,  19.60000,
,,,00.000000276000,  20.00000,
,,,00.000000277000,  19.20000,
,,,00.000000278000,  20.00000,
,,,00.000000279000,  20.00000,
,,,00.000000280000,  19.60000,
,,,00.000000281000,  20.00000,
,,,00.000000282000,  19.60000,
,,,00.000000283000,  19.60000,
,,,00.000000284000,  19.20000,
,,,00.000000285000,  19.60000,
,,,00.000000286000,  20.00000,
,,,00.000000287000,  19.60000,
,,,00.000000288000,  20.00000,
,,,00.000000289000,  20.40000,
,,,00.000000290000,  20.40000,
,,,00.000000291000,  20.00000,
,,,00.000000292000,  19.60000,
,,,00.000000293000,  20.00000,
,,,00.000000294000,  20.00000,
,,,00.000000295000,  20.40000,
,,,00.000000296000,  19.60000,
,,,00.000000297000,  19.60000,
,,,00.000000298000,  20.00000,
,,,00.000000299000,  20.00000,
,,,00.000000300000,  20.00000,
,,,00.000000301000,  20.00000,
,,,00.000000302000,  19.60000,
,,,00.000000303000,  20.00000,
,,,00.000000304000,  20.00000,
,,,00.000000305000,  20.00000,
,,,00.000000306000,  19.60000,
,,,00.000000307000,  19.60000,
,,,00.000000308000,  20.00000,
,,,00.000000309000,  20.40000,
,,,00.000000310000,  20.00000,
,,,00.000000311000,  19.60000,
,,,00.000000312000,  19.20000,
,,,00.000000313000,  20.00000,
,,,00.000000314000,  19.60000,
,,,00.000000315000,  19.60000,
,,,00.000000316000,  20.00000,
,,,00.000000317000,  20.00000,
,,,00.000000318000,  19.60000,
,,,00.000000319000,  20.00000,
,,,00.000000320000,  19.60000,
,,,00.000000321000,  20.00000,
,,,00.000000322000,  19.60000,
,,,00.000000323000,  19.60000,
,,,00.000000324000,  19.60000,
,,,00.000000325000,  20.40000,
,,,00.000000326000,  20.00000,
,,,00.000000327000,  20.00000,
,,,00.000000328000,  19.60000,
,,,00.000000329000,  20.00000,
,,,00.000000330000,  20.00000,
,,,00.000000331000,  20.00000,
,,,00.000000332000,  20.00000,
,,,00.000000333000,  19.60000,
,,,00.000000334000,  19.60000,
,,,00.000000335000,  20.00000,
,,,00.000000336000,  19.60000,
,,,00.000000337000,  19.60000,
,,,00.000000338000,  19.60000,
,,,00.000000339000,  20.00000,
,,,00.000000340000,  19.60000,
,,,00.000000341000,  19.20000,
,,,00.000000342000,  19.60000,
,,,00.000000343000,  19.60000,
,,,00.000000344000,  20.00000,
,,,00.000000345000,  20.00000,
,,,00.000000346000,  20.40000,
,,,00.000000347000,  20.00000,
,,,00.000000348000,  20.00000,
,,,00.000000349000,  19.60000,
,,,00.000000350000,  20.00000,
,,,00.000000351000,  20.40000,
,,,00.000000352000,  20.00000,
,,,00.000000353000,  20.00000,
,,,00.000000354000,  20.00000,
