v52/oszi_bilder/ALL0061/F0061CH1.CSV

Record Length,2.500000e+03,,  -0.000000270000, -10.80000,
Sample Interval,1.000000e-09,,  -0.000000269000, -10.40000,
Trigger Point,2.700000000000e+02,,  -0.000000268000, -10.40000,
,,,  -0.000000267000, -10.40000,
,,,  -0.000000266000, -10.80000,
,,,  -0.000000265000, -10.40000,
Source,CH1,,  -0.000000264000, -10.40000,
Vertical Units,V,,  -0.000000263000, -10.40000,
Vertical Scale,1.000000e+01,,  -0.000000262000, -10.80000,
Vertical Offset,0.000000e+00,,  -0.000000261000, -10.00000,
Horizontal Units,s,,  -0.000000260000, -10.40000,
Horizontal Scale,2.500000e-07,,  -0.000000259000, -10.40000,
Pt Fmt,Y,,  -0.000000258000, -10.40000,
Yzero,0.000000e+00,,  -0.000000257000, -10.80000,
Probe Atten,1.000000e+01,,  -0.000000256000, -10.80000,
Model Number,TDS1012B,,  -0.000000255000, -10.80000,
Serial Number,C063631,,  -0.000000254000, -10.80000,
Firmware Version,FV:v22.01,,  -0.000000253000, -10.80000,
,,,-00.000000252000, -10.80000,
,,,-00.000000251000, -10.40000,
,,,-00.000000250000, -10.40000,
,,,-00.000000249000, -10.80000,
,,,-00.000000248000, -10.80000,
,,,-00.000000247000, -10.80000,
,,,-00.000000246000, -10.80000,
,,,-00.000000245000, -10.80000,
,,,-00.000000244000, -10.40000,
,,,-00.000000243000, -10.40000,
,,,-00.000000242000, -10.80000,
,,,-00.000000241000, -11.20000,
,,,-00.000000240000, -10.40000,
,,,-00.000000239000, -10.80000,
,,,-00.000000238000, -10.40000,
,,,-00.000000237000, -10.40000,
,,,-00.000000236000, -10.40000,
,,,-00.000000235000, -10.80000,
,,,-00.000000234000, -10.40000,
,,,-00.000000233000, -10.40000,
,,,-00.000000232000, -10.40000,
,,,-00.000000231000, -10.40000,
,,,-00.000000230000, -10.40000,
,,,-00.000000229000, -10.40000,
,,,-00.000000228000, -10.80000,
,,,-00.000000227000, -10.40000,
,,,-00.000000226000, -10.40000,
,,,-00.000000225000, -10.40000,
,,,-00.000000224000, -10.80000,
,,,-00.000000223000, -10.80000,
,,,-00.000000222000, -10.40000,
,,,-00.000000221000, -10.40000,
,,,-00.000000220000, -10.80000,
,,,-00.000000219000, -10.40000,
,,,-00.000000218000, -10.40000,
,,,-00.000000217000, -10.80000,
,,,-00.000000216000, -10.80000,
,,,-00.000000215000, -10.40000,
,,,-00.000000214000, -10.40000,
,,,-00.000000213000, -10.80000,
,,,-00.000000212000, -10.80000,
,,,-00.000000211000, -10.40000,
,,,-00.000000210000, -10.80000,
,,,-00.000000209000, -10.80000,
,,,-00.000000208000, -10.80000,
,,,-00.000000207000, -10.40000,
,,,-00.000000206000, -10.80000,
,,,-00.000000205000, -10.40000,
,,,-00.000000204000, -10.40000,
,,,-00.000000203000, -10.80000,
,,,-00.000000202000, -10.40000,
,,,-00.000000201000, -10.40000,
,,,-00.000000200000, -10.40000,
,,,-00.000000199000, -10.80000,
,,,-00.000000198000, -10.00000,
,,,-00.000000197000, -10.00000,
,,,-00.000000196000, -10.40000,
,,,-00.000000195000, -10.40000,
,,,-00.000000194000, -10.40000,
,,,-00.000000193000, -10.40000,
,,,-00.000000192000, -10.40000,
,,,-00.000000191000, -10.80000,
,,,-00.000000190000, -10.80000,
,,,-00.000000189000, -10.80000,
,,,-00.000000188000, -10.40000,
,,,-00.000000187000, -10.40000,
,,,-00.000000186000, -10.40000,
,,,-00.000000185000, -10.40000,
,,,-00.000000184000, -10.80000,
,,,-00.000000183000, -10.00000,
,,,-00.000000182000, -10.40000,
,,,-00.000000181000, -10.80000,
,,,-00.000000180000, -10.80000,
,,,-00.000000179000, -10.40000,
,,,-00.000000178000, -10.00000,
,,,-00.000000177000, -10.00000,
,,,-00.000000176000, -10.40000,
,,,-00.000000175000, -10.80000,
,,,-00.000000174000, -10.80000,
,,,-00.000000173000, -10.40000,
,,,-00.000000172000, -10.00000,
,,,-00.000000171000, -10.80000,
,,,-00.000000170000, -10.80000,
,,,-00.000000169000, -10.80000,
,,,-00.000000168000, -10.40000,
,,,-00.000000167000, -10.40000,
,,,-00.000000166000, -10.40000,
,,,-00.000000165000, -10.00000,
,,,-00.000000164000, -10.40000,
,,,-00.000000163000, -10.40000,
,,,-00.000000162000, -10.80000,
,,,-00.000000161000, -10.00000,
,,,-00.000000160000, -10.40000,
,,,-00.000000159000, -10.40000,
,,,-00.000000158000, -10.80000,
,,,-00.000000157000, -10.40000,
,,,-00.000000156000, -10.40000,
,,,-00.000000155000, -10.40000,
,,,-00.000000154000, -10.40000,
,,,-00.000000153000, -10.80000,
,,,-00.000000152000, -10.80000,
,,,-00.000000151000, -10.40000,
,,,-00.000000150000, -10.40000,
,,,-00.000000149000, -10.40000,
,,,-00.000000148000, -10.40000,
,,,-00.000000147000, -10.40000,
,,,-00.000000146000, -10.80000,
,,,-00.000000145000, -10.40000,
,,,-00.000000144000, -10.40000,
,,,-00.000000143000, -10.40000,
,,,-00.000000142000, -10.40000,
,,,-00.000000141000, -10.00000,
,,,-00.000000140000, -10.40000,
,,,-00.000000139000, -10.40000,
,,,-00.000000138000, -10.40000,
,,,-00.000000137000, -10.80000,
,,,-00.000000136000, -10.80000,
,,,-00.000000135000, -10.40000,
,,,-00.000000134000, -10.40000,
,,,-00.000000133000, -10.40000,
,,,-00.000000132000, -10.40000,
,,,-00.000000131000, -10.80000,
,,,-00.000000130000, -10.00000,
,,,-00.000000129000, -10.40000,
,,,-00.000000128000, -10.40000,
,,,-00.000000127000, -10.40000,
,,,-00.000000126000, -10.40000,
,,,-00.000000125000, -10.40000,
,,,-00.000000124000, -10.80000,
,,,-00.000000123000, -10.80000,
,,,-00.000000122000, -10.40000,
,,,-00.000000121000, -10.40000,
,,,-00.000000120000, -10.40000,
,,,-00.000000119000, -11.20000,
,,,-00.000000118000, -10.40000,
,,,-00.000000117000, -10.40000,
,,,-00.000000116000, -10.40000,
,,,-00.000000115000, -10.80000,
,,,-00.000000114000, -10.40000,
,,,-00.000000113000, -10.40000,
,,,-00.000000112000, -10.80000,
,,,-00.000000111000, -10.40000,
,,,-00.000000110000, -10.80000,
,,,-00.000000109000, -10.80000,
,,,-00.000000108000, -10.80000,
,,,-00.000000107000, -10.40000,
,,,-00.000000106000, -10.40000,
,,,-00.000000105000, -10.40000,
,,,-00.000000104000, -10.00000,
,,,-00.000000103000, -10.40000,
,,,-00.000000102000, -10.00000,
,,,-00.000000101000, -10.40000,
,,,-00.000000100000, -10.00000,
,,,-00.000000099000, -10.00000,
,,,-00.000000098000, -10.40000,
,,,-00.000000097000, -10.00000,
,,,-00.000000096000, -10.40000,
,,,-00.000000095000, -10.00000,
,,,-00.000000094000, -10.40000,
,,,-00.000000093000, -10.40000,
,,,-00.000000092000, -10.80000,
,,,-00.000000091000, -10.80000,
,,,-00.000000090000, -10.40000,
,,,-00.000000089000, -10.40000,
,,,-00.000000088000, -10.80000,
,,,-00.000000087000, -10.40000,
,,,-00.000000086000, -10.40000,
,,,-00.000000085000, -10.80000,
,,,-00.000000084000, -10.40000,
,,,-00.000000083000, -11.20000,
,,,-00.000000082000, -10.80000,
,,,-00.000000081000, -10.40000,
,,,-00.000000080000, -10.40000,
,,,-00.000000079000, -10.40000,
,,,-00.000000078000, -10.80000,
,,,-00.000000077000, -10.40000,
,,,-00.000000076000, -10.40000,
,,,-00.000000075000, -10.40000,
,,,-00.000000074000, -10.40000,
,,,-00.000000073000, -10.40000,
,,,-00.000000072000, -10.40000,
,,,-00.000000071000, -10.80000,
,,,-00.000000070000, -10.80000,
,,,-00.000000069000, -10.80000,
,,,-00.000000068000, -10.40000,
,,,-00.000000067000, -10.80000,
,,,-00.000000066000, -10.40000,
,,,-00.000000065000, -10.40000,
,,,-00.000000064000, -10.00000,
,,,-00.000000063000, -10.40000,
,,,-00.000000062000, -10.40000,
,,,-00.000000061000, -10.80000,
,,,-00.000000060000, -10.40000,
,,,-00.000000059000, -10.40000,
,,,-00.000000058000, -10.80000,
,,,-00.000000057000, -10.40000,
,,,-00.000000056000, -10.80000,
,,,-00.000000055000, -10.80000,
,,,-00.000000054000, -11.20000,
,,,-00.000000053000, -10.80000,
,,,-00.000000052000, -10.80000,
,,,-00.000000051000, -10.40000,
,,,-00.000000050000, -10.80000,
,,,-00.000000049000, -10.40000,
,,,-00.000000048000, -10.40000,
,,,-00.000000047000, -10.40000,
,,,-00.000000046000, -10.40000,
,,,-00.000000045000, -10.80000,
,,,-00.000000044000, -10.40000,
,,,-00.000000043000, -10.40000,
,,,-00.000000042000, -10.40000,
,,,-00.000000041000, -10.40000,
,,,-00.000000040000, -10.80000,
,,,-00.000000039000, -10.80000,
,,,-00.000000038000, -10.40000,
,,,-00.000000037000, -10.40000,
,,,-00.000000036000, -10.40000,
,,,-00.000000035000, -10.40000,
,,,-00.000000034000, -10.00000,
,,,-00.000000033000, -10.00000,
,,,-00.000000032000, -10.80000,
,,,-00.000000031000, -10.40000,
,,,-00.000000030000, -10.80000,
,,,-00.000000029000, -10.80000,
,,,-00.000000028000, -10.40000,
,,,-00.000000027000, -10.80000,
,,,-00.000000026000, -10.00000,
,,,-00.000000025000, -10.40000,
,,,-00.000000024000, -10.00000,
,,,-00.000000023000, -10.80000,
,,,-00.000000022000, -10.40000,
,,,-00.000000021000, -10.40000,
,,,-00.000000020000, -10.80000,
,,,-00.000000019000, -10.40000,
,,,-00.000000018000, -10.80000,
,,,-00.000000017000, -10.80000,
,,,-00.000000016000, -10.40000,
,,,-00.000000015000, -10.80000,
,,,-00.000000014000, -10.80000,
,,,-00.000000013000, -11.20000,
,,,-00.000000012000, -11.20000,
,,,-00.000000011000, -10.80000,
,,,-00.000000010000, -10.40000,
,,,-00.000000009000, -10.40000,
,,,-00.000000008000, -10.80000,
,,,-00.000000007000, -10.00000,
,,,-00.000000006000, -10.40000,
,,,-00.000000005000, -10.00000,
,,,-00.000000004000, -10.00000,
,,,-00.000000003000,  -8.80000,
,,,-00.000000002000,  -7.20000,
,,,-00.000000001000,  -3.60000,
,,,-00.000000000000,   0.40000,
,,,00.000000001000,   2.80000,
,,,00.000000002000,   5.20000,
,,,00.000000003000,   6.80000,
,,,00.000000004000,   7.60000,
,,,00.000000005000,   8.00000,
,,,00.000000006000,   8.80000,
,,,00.000000007000,   9.20000,
,,,00.000000008000,   9.60000,
,,,00.000000009000,   9.20000,
,,,00.000000010000,  10.00000,
,,,00.000000011000,  10.40000,
,,,00.000000012000,  10.40000,
,,,00.000000013000,  10.00000,
,,,00.000000014000,  10.40000,
,,,00.000000015000,  10.40000,
,,,00.000000016000,  10.40000,
,,,00.000000017000,  10.40000,
,,,00.000000018000,  10.00000,
,,,00.000000019000,  10.40000,
,,,00.000000020000,  10.40000,
,,,00.000000021000,  10.40000,
,,,00.000000022000,  10.80000,
,,,00.000000023000,  10.40000,
,,,00.000000024000,  10.40000,
,,,00.000000025000,  10.00000,
,,,00.000000026000,  10.40000,
,,,00.000000027000,  10.80000,
,,,00.000000028000,  10.40000,
,,,00.000000029000,  10.80000,
,,,00.000000030000,  10.00000,
,,,00.000000031000,  10.00000,
,,,00.000000032000,  10.40000,
,,,00.000000033000,  10.00000,
,,,00.000000034000,  10.80000,
,,,00.000000035000,  10.80000,
,,,00.000000036000,  10.40000,
,,,00.000000037000,  10.00000,
,,,00.000000038000,  10.40000,
,,,00.000000039000,  10.40000,
,,,00.000000040000,  10.40000,
,,,00.000000041000,  10.80000,
,,,00.000000042000,  10.40000,
,,,00.000000043000,  10.40000,
,,,00.000000044000,  10.40000,
,,,00.000000045000,   9.60000,
,,,00.000000046000,  10.00000,
,,,00.000000047000,  10.40000,
,,,00.000000048000,  10.00000,
,,,00.000000049000,  10.40000,
,,,00.000000050000,  10.80000,
,,,00.000000051000,  10.80000,
,,,00.000000052000,  10.40000,
,,,00.000000053000,  10.40000,
,,,00.000000054000,  10.40000,
,,,00.000000055000,  10.00000,
,,,00.000000056000,  10.40000,
,,,00.000000057000,  10.80000,
,,,00.000000058000,  10.40000,
,,,00.000000059000,  10.80000,
,,,00.000000060000,  10.80000,
,,,00.000000061000,  10.40000,
,,,00.000000062000,  10.80000,
,,,00.000000063000,  10.40000,
,,,00.000000064000,   9.60000,
,,,00.000000065000,  10.40000,
,,,00.000000066000,  10.40000,
,,,00.000000067000,  10.40000,
,,,00.000000068000,  10.80000,
,,,00.000000069000,  10.80000,
,,,00.000000070000,  10.40000,
,,,00.000000071000,  10.80000,
,,,00.000000072000,  10.40000,
,,,00.000000073000,  10.00000,
,,,00.000000074000,  10.80000,
,,,00.000000075000,  10.80000,
,,,00.000000076000,  10.80000,
,,,00.000000077000,  10.40000,
,,,00.000000078000,  10.80000,
,,,00.000000079000,  11.20000,
,,,00.000000080000,  10.80000,
,,,00.000000081000,  10.00000,
,,,00.000000082000,  10.40000,
,,,00.000000083000,  10.40000,
,,,00.000000084000,  10.40000,
,,,00.000000085000,  10.80000,
,,,00.000000086000,  10.40000,
,,,00.000000087000,  10.80000,
,,,00.000000088000,  10.40000,
,,,00.000000089000,  11.60000,
,,,00.000000090000,  10.40000,
,,,00.000000091000,  10.40000,
,,,00.000000092000,  10.40000,
,,,00.000000093000,  10.80000,
,,,00.000000094000,  10.40000,
,,,00.000000095000,  10.40000,
,,,00.000000096000,  10.80000,
,,,00.000000097000,  10.80000,
,,,00.000000098000,  10.00000,
,,,00.000000099000,  10.40000,
,,,00.000000100000,  10.40000,
,,,00.000000101000,  10.40000,
,,,00.000000102000,  10.40000,
,,,00.000000103000,  10.40000,
,,,00.000000104000,  10.40000,
,,,00.000000105000,  10.00000,
,,,00.000000106000,  10.40000,
,,,00.000000107000,  10.00000,
,,,00.000000108000,  10.40000,
,,,00.000000109000,  10.80000,
,,,00.000000110000,  10.80000,
,,,00.000000111000,  10.40000,
,,,00.000000112000,  10.00000,
,,,00.000000113000,  10.00000,
,,,00.000000114000,  10.80000,
,,,00.000000115000,  10.40000,
,,,00.000000116000,  10.40000,
,,,00.000000117000,  10.40000,
,,,00.000000118000,  10.40000,
,,,00.000000119000,  10.40000,
,,,00.000000120000,  10.40000,
,,,00.000000121000,  10.80000,
,,,00.000000122000,  10.00000,
,,,00.000000123000,  10.40000,
,,,00.000000124000,  10.00000,
,,,00.000000125000,  10.40000,
,,,00.000000126000,  10.40000,
,,,00.000000127000,  10.00000,
,,,00.000000128000,  10.40000,
,,,00.000000129000,  10.40000,
,,,00.000000130000,  10.00000,
,,,00.000000131000,  10.40000,
,,,00.000000132000,  10.00000,
,,,00.000000133000,  10.40000,
,,,00.000000134000,  10.00000,
,,,00.000000135000,  10.00000,
,,,00.000000136000,  10.00000,
,,,00.000000137000,  10.00000,
,,,00.000000138000,   9.60000,
,,,00.000000139000,  10.40000,
,,,00.000000140000,  10.40000,
,,,00.000000141000,  10.40000,
,,,00.000000142000,  10.40000,
,,,00.000000143000,  10.40000,
,,,00.000000144000,   9.60000,
,,,00.000000145000,  10.00000,
,,,00.000000146000,  10.00000,
,,,00.000000147000,  10.00000,
,,,00.000000148000,  10.00000,
,,,00.000000149000,  10.40000,
,,,00.000000150000,  10.40000,
,,,00.000000151000,  10.40000,
,,,00.000000152000,  10.00000,
,,,00.000000153000,  10.40000,
,,,00.000000154000,  10.00000,
,,,00.000000155000,  10.40000,
,,,00.000000156000,  10.40000,
,,,00.000000157000,  10.00000,
,,,00.000000158000,  10.00000,
,,,00.000000159000,  10.00000,
,,,00.000000160000,  10.00000,
,,,00.000000161000,  10.00000,
,,,00.000000162000,  10.40000,
,,,00.000000163000,  10.00000,
,,,00.000000164000,   9.60000,
,,,00.000000165000,  10.00000,
,,,00.000000166000,  10.40000,
,,,00.000000167000,  10.00000,
,,,00.000000168000,  10.00000,
,,,00.000000169000,  10.40000,
,,,00.000000170000,  10.00000,
,,,00.000000171000,   9.60000,
,,,00.000000172000,  10.00000,
,,,00.000000173000,  10.40000,
,,,00.000000174000,  10.80000,
,,,00.000000175000,  10.40000,
,,,00.000000176000,  10.00000,
,,,00.000000177000,  10.80000,
,,,00.000000178000,  10.40000,
,,,00.000000179000,   9.60000,
,,,00.000000180000,   9.60000,
,,,00.000000181000,  10.00000,
,,,00.000000182000,  10.00000,
,,,00.000000183000,  10.00000,
,,,00.000000184000,  10.00000,
,,,00.000000185000,  10.40000,
,,,00.000000186000,  10.40000,
,,,00.000000187000,  10.00000,
,,,00.000000188000,  10.00000,
,,,00.000000189000,   9.60000,
,,,00.000000190000,  10.00000,
,,,00.000000191000,  10.40000,
,,,00.000000192000,   9.60000,
,,,00.000000193000,  10.00000,
,,,00.000000194000,  10.00000,
,,,00.000000195000,  10.00000,
,,,00.000000196000,   9.60000,
,,,00.000000197000,   9.60000,
,,,00.000000198000,   9.60000,
,,,00.000000199000,   9.60000,
,,,00.000000200000,  10.00000,
,,,00.000000201000,  10.00000,
,,,00.000000202000,  10.00000,
,,,00.000000203000,  10.00000,
,,,00.000000204000,  10.00000,
,,,00.000000205000,  10.40000,
,,,00.000000206000,  10.00000,
,,,00.000000207000,  10.40000,
,,,00.000000208000,  10.00000,
,,,00.000000209000,  10.40000,
,,,00.000000210000,  10.00000,
,,,00.000000211000,  10.40000,
,,,00.000000212000,   9.60000,
,,,00.000000213000,  10.00000,
,,,00.000000214000,  10.40000,
,,,00.000000215000,  10.40000,
,,,00.000000216000,  10.00000,
,,,00.000000217000,  10.00000,
,,,00.000000218000,  10.40000,
,,,00.000000219000,   9.60000,
,,,00.000000220000,  10.40000,
,,,00.000000221000,  10.00000,
,,,00.000000222000,   9.60000,
,,,00.000000223000,  10.00000,
,,,00.000000224000,  10.40000,
,,,00.000000225000,  10.00000,
,,,00.000000226000,  10.00000,
,,,00.000000227000,  10.00000,
,,,00.000000228000,  10.00000,
,,,00.000000229000,   9.60000,
,,,00.000000230000,  10.00000,
,,,00.000000231000,  10.00000,
,,,00.000000232000,  10.40000,
,,,00.000000233000,  10.40000,
,,,00.000000234000,  10.00000,
,,,00.000000235000,  10.00000,
,,,00.000000236000,  10.00000,
,,,00.000000237000,  10.00000,
,,,00.000000238000,  10.40000,
,,,00.000000239000,  10.00000,
,,,00.000000240000,  10.00000,
,,,00.000000241000,  10.00000,
,,,00.000000242000,  10.00000,
,,,00.000000243000,   9.60000,
,,,00.000000244000,  10.00000,
,,,00.000000245000,  10.00000,
,,,00.000000246000,  10.00000,
,,,00.000000247000,   9.60000,
,,,00.000000248000,  10.40000,
,,,00.000000249000,   9.60000,
,,,00.000000250000,  10.00000,
,,,00.000000251000,  10.40000,
,,,00.000000252000,  10.00000,
,,,00.000000253000,  10.00000,
,,,00.000000254000,  10.00000,
,,,00.000000255000,  10.40000,
,,,00.000000256000,  10.00000,
,,,00.000000257000,   9.60000,
,,,00.000000258000,  10.40000,
,,,00.000000259000,  10.00000,
,,,00.000000260000,  10.00000,
,,,00.000000261000,  10.40000,
,,,00.000000262000,  10.00000,
,,,00.000000263000,   9.60000,
,,,00.000000264000,  10.00000,
,,,00.000000265000,  10.40000,
,,,00.000000266000,  10.00000,
,,,00.000000267000,  10.40000,
,,,00.000000268000,  10.40000,
,,,00.000000269000,  10.40000,
,,,00.000000270000,   9.60000,
,,,00.000000271000,  10.00000,
,,,00.000000272000,  10.40000,
,,,00.000000273000,  10.00000,
,,,00.000000274000,  10.40000,
,,,00.000000275000,  10.40000,
,,,00.000000276000,  10.40000,
,,,00.000000277000,  10.40000,
,,,00.000000278000,  10.00000,
,,,00.000000279000,   9.60000,
,,,00.000000280000,  10.00000,
,,,00.000000281000,  10.40000,
,,,00.000000282000,  10.40000,
,,,00.000000283000,  10.00000,
,,,00.000000284000,  10.00000,
,,,00.000000285000,  10.00000,
,,,00.000000286000,  10.00000,
,,,00.000000287000,  10.00000,
,,,00.000000288000,  10.00000,
,,,00.000000289000,  10.00000,
,,,00.000000290000,  10.00000,
,,,00.000000291000,   9.60000,
,,,00.000000292000,  10.00000,
,,,00.000000293000,  10.00000,
,,,00.000000294000,  10.00000,
,,,00.000000295000,   9.60000,
,,,00.000000296000,  10.40000,
,,,00.000000297000,   9.60000,
,,,00.000000298000,  10.00000,
,,,00.000000299000,  10.00000,
,,,00.000000300000,  10.00000,
,,,00.000000301000,  10.00000,
,,,00.000000302000,   9.60000,
,,,00.000000303000,   9.60000,
,,,00.000000304000,  10.00000,
,,,00.000000305000,  10.00000,
,,,00.000000306000,  10.00000,
,,,00.000000307000,  10.00000,
,,,00.000000308000,  10.00000,
,,,00.000000309000,  10.00000,
,,,00.000000310000,  10.00000,
,,,00.000000311000,   9.60000,
,,,00.000000312000,  10.40000,
,,,00.000000313000,  10.00000,
,,,00.000000314000,  10.00000,
,,,00.000000315000,  10.40000,
,,,00.000000316000,  10.00000,
,,,00.000000317000,  10.40000,
,,,00.000000318000,  10.00000,
,,,00.000000319000,  10.40000,
,,,00.000000320000,   9.60000,
,,,00.000000321000,  10.00000,
,,,00.000000322000,   9.60000,
,,,00.000000323000,  10.00000,
,,,00.000000324000,  10.00000,
,,,00.000000325000,   9.20000,
,,,00.000000326000,   9.60000,
,,,00.000000327000,  10.00000,
,,,00.000000328000,  10.00000,
,,,00.000000329000,  10.40000,
,,,00.000000330000,  10.00000,
,,,00.000000331000,  10.00000,
,,,00.000000332000,   9.60000,
,,,00.000000333000,   9.60000,
,,,00.000000334000,  10.00000,
,,,00.000000335000,   9.60000,
,,,00.000000336000,  10.00000,
,,,00.000000337000,   9.60000,
,,,00.000000338000,  10.00000,
,,,00.000000339000,  10.40000,
,,,00.000000340000,  10.40000,
,,,00.000000341000,  10.00000,
,,,00.000000342000,  10.00000,
,,,00.000000343000,  10.00000,
,,,00.000000344000,  10.40000,
,,,00.000000345000,  10.40000,
,,,00.000000346000,  10.00000,
,,,00.000000347000,  10.00000,
,,,00.000000348000,   9.60000,
,,,00.000000349000,  10.00000,
,,,00.000000350000,  10.00000,
,,,00.000000351000,  10.00000,
,,,00.000000352000,  10.00000,
,,,00.000000353000,  10.00000,
,,,00.000000354000,  10.00000,
