v52/oszi_bilder/ALL0055/F0055CH1.CSV

Record Length,2.500000e+03,,  -0.000000270000,  -0.80000,
Sample Interval,1.000000e-09,,  -0.000000269000,  -0.80000,
Trigger Point,2.700000000000e+02,,  -0.000000268000,  -1.60000,
,,,  -0.000000267000,  -1.60000,
,,,  -0.000000266000,  -0.80000,
,,,  -0.000000265000,  -0.80000,
Source,CH1,,  -0.000000264000,  -0.40000,
Vertical Units,V,,  -0.000000263000,  -0.40000,
Vertical Scale,1.000000e+01,,  -0.000000262000,  -1.20000,
Vertical Offset,0.000000e+00,,  -0.000000261000,  -1.20000,
Horizontal Units,s,,  -0.000000260000,  -0.80000,
Horizontal Scale,2.500000e-07,,  -0.000000259000,  -1.20000,
Pt Fmt,Y,,  -0.000000258000,  -0.80000,
Yzero,0.000000e+00,,  -0.000000257000,  -0.80000,
Probe Atten,1.000000e+01,,  -0.000000256000,  -1.20000,
Model Number,TDS1012B,,  -0.000000255000,  -1.20000,
Serial Number,C063631,,  -0.000000254000,  -0.80000,
Firmware Version,FV:v22.01,,  -0.000000253000,  -1.20000,
,,,-00.000000252000,  -1.20000,
,,,-00.000000251000,  -1.20000,
,,,-00.000000250000,  -0.80000,
,,,-00.000000249000,  -0.80000,
,,,-00.000000248000,  -1.20000,
,,,-00.000000247000,  -1.60000,
,,,-00.000000246000,  -0.80000,
,,,-00.000000245000,  -1.60000,
,,,-00.000000244000,  -0.80000,
,,,-00.000000243000,  -1.20000,
,,,-00.000000242000,  -1.20000,
,,,-00.000000241000,  -1.20000,
,,,-00.000000240000,  -1.20000,
,,,-00.000000239000,  -1.20000,
,,,-00.000000238000,  -1.20000,
,,,-00.000000237000,  -0.80000,
,,,-00.000000236000,  -1.20000,
,,,-00.000000235000,  -0.80000,
,,,-00.000000234000,  -1.20000,
,,,-00.000000233000,  -0.80000,
,,,-00.000000232000,  -1.20000,
,,,-00.000000231000,  -0.80000,
,,,-00.000000230000,  -0.80000,
,,,-00.000000229000,  -0.80000,
,,,-00.000000228000,  -1.20000,
,,,-00.000000227000,  -0.80000,
,,,-00.000000226000,  -1.20000,
,,,-00.000000225000,  -1.20000,
,,,-00.000000224000,  -1.60000,
,,,-00.000000223000,  -1.20000,
,,,-00.000000222000,  -1.20000,
,,,-00.000000221000,  -1.20000,
,,,-00.000000220000,  -1.20000,
,,,-00.000000219000,  -1.20000,
,,,-00.000000218000,  -0.80000,
,,,-00.000000217000,  -1.20000,
,,,-00.000000216000,  -0.80000,
,,,-00.000000215000,  -1.20000,
,,,-00.000000214000,  -0.80000,
,,,-00.000000213000,  -1.20000,
,,,-00.000000212000,  -0.80000,
,,,-00.000000211000,  -1.20000,
,,,-00.000000210000,  -1.20000,
,,,-00.000000209000,  -1.20000,
,,,-00.000000208000,  -0.80000,
,,,-00.000000207000,  -0.80000,
,,,-00.000000206000,  -1.20000,
,,,-00.000000205000,  -1.20000,
,,,-00.000000204000,  -1.20000,
,,,-00.000000203000,  -1.20000,
,,,-00.000000202000,  -1.20000,
,,,-00.000000201000,  -0.80000,
,,,-00.000000200000,  -1.20000,
,,,-00.000000199000,  -0.80000,
,,,-00.000000198000,  -1.60000,
,,,-00.000000197000,  -1.20000,
,,,-00.000000196000,  -1.60000,
,,,-00.000000195000,  -1.60000,
,,,-00.000000194000,  -1.60000,
,,,-00.000000193000,  -1.20000,
,,,-00.000000192000,  -1.20000,
,,,-00.000000191000,  -0.80000,
,,,-00.000000190000,  -1.20000,
,,,-00.000000189000,  -1.60000,
,,,-00.000000188000,  -1.60000,
,,,-00.000000187000,  -1.20000,
,,,-00.000000186000,  -0.80000,
,,,-00.000000185000,  -1.60000,
,,,-00.000000184000,  -1.20000,
,,,-00.000000183000,  -1.20000,
,,,-00.000000182000,  -1.20000,
,,,-00.000000181000,  -1.20000,
,,,-00.000000180000,  -0.80000,
,,,-00.000000179000,  -1.20000,
,,,-00.000000178000,  -0.80000,
,,,-00.000000177000,  -0.80000,
,,,-00.000000176000,  -1.20000,
,,,-00.000000175000,  -0.80000,
,,,-00.000000174000,  -1.20000,
,,,-00.000000173000,  -1.20000,
,,,-00.000000172000,  -1.20000,
,,,-00.000000171000,  -1.20000,
,,,-00.000000170000,  -1.20000,
,,,-00.000000169000,  -0.80000,
,,,-00.000000168000,  -1.20000,
,,,-00.000000167000,  -1.60000,
,,,-00.000000166000,  -0.80000,
,,,-00.000000165000,  -1.20000,
,,,-00.000000164000,  -1.20000,
,,,-00.000000163000,  -0.80000,
,,,-00.000000162000,  -1.60000,
,,,-00.000000161000,  -1.60000,
,,,-00.000000160000,  -0.80000,
,,,-00.000000159000,  -0.80000,
,,,-00.000000158000,  -1.20000,
,,,-00.000000157000,  -1.20000,
,,,-00.000000156000,  -1.20000,
,,,-00.000000155000,  -1.20000,
,,,-00.000000154000,  -1.20000,
,,,-00.000000153000,  -0.80000,
,,,-00.000000152000,  -0.80000,
,,,-00.000000151000,  -0.80000,
,,,-00.000000150000,  -1.20000,
,,,-00.000000149000,  -1.20000,
,,,-00.000000148000,  -0.80000,
,,,-00.000000147000,  -0.80000,
,,,-00.000000146000,  -0.80000,
,,,-00.000000145000,  -0.80000,
,,,-00.000000144000,  -1.20000,
,,,-00.000000143000,  -1.20000,
,,,-00.000000142000,  -1.20000,
,,,-00.000000141000,  -1.20000,
,,,-00.000000140000,  -0.80000,
,,,-00.000000139000,  -1.20000,
,,,-00.000000138000,  -0.80000,
,,,-00.000000137000,  -1.20000,
,,,-00.000000136000,  -1.20000,
,,,-00.000000135000,  -1.20000,
,,,-00.000000134000,  -0.80000,
,,,-00.000000133000,  -0.80000,
,,,-00.000000132000,  -1.20000,
,,,-00.000000131000,  -1.20000,
,,,-00.000000130000,  -0.80000,
,,,-00.000000129000,  -1.20000,
,,,-00.000000128000,  -1.20000,
,,,-00.000000127000,  -1.20000,
,,,-00.000000126000,  -1.20000,
,,,-00.000000125000,  -1.20000,
,,,-00.000000124000,  -1.20000,
,,,-00.000000123000,  -1.60000,
,,,-00.000000122000,  -1.20000,
,,,-00.000000121000,  -1.60000,
,,,-00.000000120000,  -0.80000,
,,,-00.000000119000,  -1.20000,
,,,-00.000000118000,  -1.20000,
,,,-00.000000117000,  -0.80000,
,,,-00.000000116000,  -1.20000,
,,,-00.000000115000,  -0.80000,
,,,-00.000000114000,  -1.20000,
,,,-00.000000113000,  -0.80000,
,,,-00.000000112000,  -1.20000,
,,,-00.000000111000,  -0.80000,
,,,-00.000000110000,  -1.20000,
,,,-00.000000109000,  -1.20000,
,,,-00.000000108000,  -0.80000,
,,,-00.000000107000,  -0.80000,
,,,-00.000000106000,  -1.20000,
,,,-00.000000105000,  -0.80000,
,,,-00.000000104000,  -1.20000,
,,,-00.000000103000,  -1.20000,
,,,-00.000000102000,  -0.80000,
,,,-00.000000101000,  -1.20000,
,,,-00.000000100000,  -0.80000,
,,,-00.000000099000,  -0.80000,
,,,-00.000000098000,  -1.20000,
,,,-00.000000097000,  -1.60000,
,,,-00.000000096000,  -1.20000,
,,,-00.000000095000,  -1.60000,
,,,-00.000000094000,  -1.20000,
,,,-00.000000093000,  -1.20000,
,,,-00.000000092000,  -1.20000,
,,,-00.000000091000,  -1.20000,
,,,-00.000000090000,  -1.20000,
,,,-00.000000089000,  -1.20000,
,,,-00.000000088000,  -1.20000,
,,,-00.000000087000,  -1.20000,
,,,-00.000000086000,  -1.20000,
,,,-00.000000085000,  -0.80000,
,,,-00.000000084000,  -1.60000,
,,,-00.000000083000,  -0.80000,
,,,-00.000000082000,  -1.20000,
,,,-00.000000081000,  -1.20000,
,,,-00.000000080000,  -1.20000,
,,,-00.000000079000,  -1.20000,
,,,-00.000000078000,  -0.80000,
,,,-00.000000077000,  -1.20000,
,,,-00.000000076000,  -1.20000,
,,,-00.000000075000,  -1.20000,
,,,-00.000000074000,  -0.80000,
,,,-00.000000073000,  -1.20000,
,,,-00.000000072000,  -1.20000,
,,,-00.000000071000,  -1.20000,
,,,-00.000000070000,  -1.60000,
,,,-00.000000069000,  -1.20000,
,,,-00.000000068000,  -0.80000,
,,,-00.000000067000,  -1.20000,
,,,-00.000000066000,  -1.60000,
,,,-00.000000065000,  -1.60000,
,,,-00.000000064000,  -0.80000,
,,,-00.000000063000,  -1.20000,
,,,-00.000000062000,  -1.20000,
,,,-00.000000061000,  -0.80000,
,,,-00.000000060000,  -0.80000,
,,,-00.000000059000,  -0.80000,
,,,-00.000000058000,  -1.20000,
,,,-00.000000057000,  -1.20000,
,,,-00.000000056000,  -0.80000,
,,,-00.000000055000,  -1.20000,
,,,-00.000000054000,  -1.20000,
,,,-00.000000053000,  -0.80000,
,,,-00.000000052000,  -1.20000,
,,,-00.000000051000,  -1.20000,
,,,-00.000000050000,  -1.20000,
,,,-00.000000049000,  -1.20000,
,,,-00.000000048000,  -1.20000,
,,,-00.000000047000,  -0.80000,
,,,-00.000000046000,  -0.80000,
,,,-00.000000045000,  -1.20000,
,,,-00.000000044000,  -1.20000,
,,,-00.000000043000,  -0.80000,
,,,-00.000000042000,  -1.20000,
,,,-00.000000041000,  -0.80000,
,,,-00.000000040000,  -1.20000,
,,,-00.000000039000,  -1.20000,
,,,-00.000000038000,  -1.20000,
,,,-00.000000037000,  -0.80000,
,,,-00.000000036000,  -1.20000,
,,,-00.000000035000,  -1.20000,
,,,-00.000000034000,  -0.80000,
,,,-00.000000033000,  -0.80000,
,,,-00.000000032000,  -1.20000,
,,,-00.000000031000,  -1.20000,
,,,-00.000000030000,  -1.20000,
,,,-00.000000029000,  -0.80000,
,,,-00.000000028000,  -1.20000,
,,,-00.000000027000,  -1.20000,
,,,-00.000000026000,  -1.20000,
,,,-00.000000025000,  -0.80000,
,,,-00.000000024000,  -0.80000,
,,,-00.000000023000,  -1.20000,
,,,-00.000000022000,  -0.80000,
,,,-00.000000021000,  -0.80000,
,,,-00.000000020000,  -1.20000,
,,,-00.000000019000,  -1.20000,
,,,-00.000000018000,  -0.80000,
,,,-00.000000017000,  -1.20000,
,,,-00.000000016000,  -0.80000,
,,,-00.000000015000,  -0.80000,
,,,-00.000000014000,  -0.80000,
,,,-00.000000013000,  -1.20000,
,,,-00.000000012000,  -1.20000,
,,,-00.000000011000,  -1.20000,
,,,-00.000000010000,  -1.20000,
,,,-00.000000009000,  -0.80000,
,,,-00.000000008000,  -1.20000,
,,,-00.000000007000,  -0.80000,
,,,-00.000000006000,  -0.80000,
,,,-00.000000005000,  -1.20000,
,,,-00.000000004000,  -0.80000,
,,,-00.000000003000,  -0.40000,
,,,-00.000000002000,  -1.20000,
,,,-00.000000001000,  -0.80000,
,,,-00.000000000000,   0.40000,
,,,00.000000001000,   2.40000,
,,,00.000000002000,   5.20000,
,,,00.000000003000,   9.20000,
,,,00.000000004000,  11.60000,
,,,00.000000005000,  13.60000,
,,,00.000000006000,  15.20000,
,,,00.000000007000,  16.80000,
,,,00.000000008000,  17.60000,
,,,00.000000009000,  18.00000,
,,,00.000000010000,  18.40000,
,,,00.000000011000,  19.20000,
,,,00.000000012000,  19.20000,
,,,00.000000013000,  19.20000,
,,,00.000000014000,  19.60000,
,,,00.000000015000,  19.20000,
,,,00.000000016000,  19.60000,
,,,00.000000017000,  19.60000,
,,,00.000000018000,  19.60000,
,,,00.000000019000,  20.00000,
,,,00.000000020000,  19.60000,
,,,00.000000021000,  19.60000,
,,,00.000000022000,  20.00000,
,,,00.000000023000,  19.60000,
,,,00.000000024000,  20.00000,
,,,00.000000025000,  19.60000,
,,,00.000000026000,  19.60000,
,,,00.000000027000,  20.00000,
,,,00.000000028000,  19.20000,
,,,00.000000029000,  19.60000,
,,,00.000000030000,  19.60000,
,,,00.000000031000,  20.00000,
,,,00.000000032000,  19.60000,
,,,00.000000033000,  19.60000,
,,,00.000000034000,  19.60000,
,,,00.000000035000,  19.60000,
,,,00.000000036000,  19.60000,
,,,00.000000037000,  19.20000,
,,,00.000000038000,  19.60000,
,,,00.000000039000,  20.40000,
,,,00.000000040000,  19.60000,
,,,00.000000041000,  19.60000,
,,,00.000000042000,  19.60000,
,,,00.000000043000,  20.00000,
,,,00.000000044000,  20.00000,
,,,00.000000045000,  20.00000,
,,,00.000000046000,  20.00000,
,,,00.000000047000,  19.60000,
,,,00.000000048000,  20.00000,
,,,00.000000049000,  20.00000,
,,,00.000000050000,  19.20000,
,,,00.000000051000,  20.00000,
,,,00.000000052000,  19.60000,
,,,00.000000053000,  19.60000,
,,,00.000000054000,  19.60000,
,,,00.000000055000,  19.60000,
,,,00.000000056000,  20.00000,
,,,00.000000057000,  19.60000,
,,,00.000000058000,  19.60000,
,,,00.000000059000,  20.00000,
,,,00.000000060000,  19.60000,
,,,00.000000061000,  19.20000,
,,,00.000000062000,  19.60000,
,,,00.000000063000,  20.00000,
,,,00.000000064000,  20.00000,
,,,00.000000065000,  20.00000,
,,,00.000000066000,  20.00000,
,,,00.000000067000,  20.40000,
,,,00.000000068000,  19.60000,
,,,00.000000069000,  20.00000,
,,,00.000000070000,  19.60000,
,,,00.000000071000,  20.00000,
,,,00.000000072000,  19.60000,
,,,00.000000073000,  19.60000,
,,,00.000000074000,  20.40000,
,,,00.000000075000,  20.00000,
,,,00.000000076000,  20.00000,
,,,00.000000077000,  20.00000,
,,,00.000000078000,  20.40000,
,,,00.000000079000,  19.60000,
,,,00.000000080000,  20.00000,
,,,00.000000081000,  20.00000,
,,,00.000000082000,  20.00000,
,,,00.000000083000,  20.00000,
,,,00.000000084000,  19.60000,
,,,00.000000085000,  20.00000,
,,,00.000000086000,  19.60000,
,,,00.000000087000,  20.00000,
,,,00.000000088000,  20.00000,
,,,00.000000089000,  20.00000,
,,,00.000000090000,  20.00000,
,,,00.000000091000,  20.00000,
,,,00.000000092000,  20.00000,
,,,00.000000093000,  20.00000,
,,,00.000000094000,  20.00000,
,,,00.000000095000,  19.60000,
,,,00.000000096000,  20.00000,
,,,00.000000097000,  20.00000,
,,,00.000000098000,  20.00000,
,,,00.000000099000,  20.00000,
,,,00.000000100000,  19.60000,
,,,00.000000101000,  20.80000,
,,,00.000000102000,  22.00000,
,,,00.000000103000,  24.40000,
,,,00.000000104000,  25.60000,
,,,00.000000105000,  28.00000,
,,,00.000000106000,  30.00000,
,,,00.000000107000,  32.40000,
,,,00.000000108000,  33.60000,
,,,00.000000109000,  34.40000,
,,,00.000000110000,  35.60000,
,,,00.000000111000,  36.00000,
,,,00.000000112000,  37.20000,
,,,00.000000113000,  37.60000,
,,,00.000000114000,  37.60000,
,,,00.000000115000,  37.60000,
,,,00.000000116000,  37.60000,
,,,00.000000117000,  38.00000,
,,,00.000000118000,  37.60000,
,,,00.000000119000,  38.00000,
,,,00.000000120000,  37.60000,
,,,00.000000121000,  37.60000,
,,,00.000000122000,  38.00000,
,,,00.000000123000,  38.00000,
,,,00.000000124000,  37.60000,
,,,00.000000125000,  38.00000,
,,,00.000000126000,  37.60000,
,,,00.000000127000,  38.00000,
,,,00.000000128000,  37.60000,
,,,00.000000129000,  37.60000,
,,,00.000000130000,  38.00000,
,,,00.000000131000,  37.60000,
,,,00.000000132000,  37.60000,
,,,00.000000133000,  37.60000,
,,,00.000000134000,  38.00000,
,,,00.000000135000,  38.00000,
,,,00.000000136000,  38.40000,
,,,00.000000137000,  38.40000,
,,,00.000000138000,  38.40000,
,,,00.000000139000,  38.00000,
,,,00.000000140000,  38.40000,
,,,00.000000141000,  38.00000,
,,,00.000000142000,  38.40000,
,,,00.000000143000,  38.40000,
,,,00.000000144000,  38.80000,
,,,00.000000145000,  38.40000,
,,,00.000000146000,  38.40000,
,,,00.000000147000,  38.80000,
,,,00.000000148000,  38.40000,
,,,00.000000149000,  38.40000,
,,,00.000000150000,  38.40000,
,,,00.000000151000,  38.40000,
,,,00.000000152000,  38.40000,
,,,00.000000153000,  38.00000,
,,,00.000000154000,  38.00000,
,,,00.000000155000,  38.00000,
,,,00.000000156000,  37.60000,
,,,00.000000157000,  38.00000,
,,,00.000000158000,  37.60000,
,,,00.000000159000,  37.20000,
,,,00.000000160000,  37.60000,
,,,00.000000161000,  38.00000,
,,,00.000000162000,  37.20000,
,,,00.000000163000,  37.60000,
,,,00.000000164000,  37.60000,
,,,00.000000165000,  38.00000,
,,,00.000000166000,  37.20000,
,,,00.000000167000,  37.20000,
,,,00.000000168000,  37.60000,
,,,00.000000169000,  37.60000,
,,,00.000000170000,  37.60000,
,,,00.000000171000,  37.60000,
,,,00.000000172000,  38.40000,
,,,00.000000173000,  38.00000,
,,,00.000000174000,  38.40000,
,,,00.000000175000,  38.00000,
,,,00.000000176000,  38.40000,
,,,00.000000177000,  38.40000,
,,,00.000000178000,  38.00000,
,,,00.000000179000,  37.60000,
,,,00.000000180000,  38.00000,
,,,00.000000181000,  38.40000,
,,,00.000000182000,  38.40000,
,,,00.000000183000,  38.00000,
,,,00.000000184000,  38.80000,
,,,00.000000185000,  38.40000,
,,,00.000000186000,  38.00000,
,,,00.000000187000,  37.60000,
,,,00.000000188000,  37.60000,
,,,00.000000189000,  37.60000,
,,,00.000000190000,  37.60000,
,,,00.000000191000,  38.00000,
,,,00.000000192000,  37.60000,
,,,00.000000193000,  37.20000,
,,,00.000000194000,  37.60000,
,,,00.000000195000,  36.80000,
,,,00.000000196000,  37.20000,
,,,00.000000197000,  38.00000,
,,,00.000000198000,  37.60000,
,,,00.000000199000,  37.60000,
,,,00.000000200000,  37.60000,
,,,00.000000201000,  38.00000,
,,,00.000000202000,  38.00000,
,,,00.000000203000,  37.60000,
,,,00.000000204000,  37.20000,
,,,00.000000205000,  36.80000,
,,,00.000000206000,  37.20000,
,,,00.000000207000,  36.80000,
,,,00.000000208000,  36.80000,
,,,00.000000209000,  36.80000,
,,,00.000000210000,  36.80000,
,,,00.000000211000,  37.20000,
,,,00.000000212000,  37.20000,
,,,00.000000213000,  38.00000,
,,,00.000000214000,  37.20000,
,,,00.000000215000,  37.60000,
,,,00.000000216000,  37.20000,
,,,00.000000217000,  37.60000,
,,,00.000000218000,  37.60000,
,,,00.000000219000,  37.20000,
,,,00.000000220000,  37.60000,
,,,00.000000221000,  37.20000,
,,,00.000000222000,  36.80000,
,,,00.000000223000,  37.20000,
,,,00.000000224000,  37.20000,
,,,00.000000225000,  36.80000,
,,,00.000000226000,  37.20000,
,,,00.000000227000,  36.40000,
,,,00.000000228000,  36.40000,
,,,00.000000229000,  37.20000,
,,,00.000000230000,  36.80000,
,,,00.000000231000,  36.40000,
,,,00.000000232000,  36.80000,
,,,00.000000233000,  36.80000,
,,,00.000000234000,  36.00000,
,,,00.000000235000,  36.40000,
,,,00.000000236000,  36.80000,
,,,00.000000237000,  36.80000,
,,,00.000000238000,  36.00000,
,,,00.000000239000,  36.80000,
,,,00.000000240000,  36.40000,
,,,00.000000241000,  37.20000,
,,,00.000000242000,  36.80000,
,,,00.000000243000,  36.40000,
,,,00.000000244000,  36.80000,
,,,00.000000245000,  36.80000,
,,,00.000000246000,  36.80000,
,,,00.000000247000,  36.80000,
,,,00.000000248000,  36.80000,
,,,00.000000249000,  37.20000,
,,,00.000000250000,  36.40000,
,,,00.000000251000,  36.80000,
,,,00.000000252000,  35.60000,
,,,00.000000253000,  36.40000,
,,,00.000000254000,  36.00000,
,,,00.000000255000,  36.00000,
,,,00.000000256000,  36.00000,
,,,00.000000257000,  36.00000,
,,,00.000000258000,  36.00000,
,,,00.000000259000,  35.60000,
,,,00.000000260000,  36.40000,
,,,00.000000261000,  36.00000,
,,,00.000000262000,  35.60000,
,,,00.000000263000,  35.60000,
,,,00.000000264000,  35.60000,
,,,00.000000265000,  36.00000,
,,,00.000000266000,  36.00000,
,,,00.000000267000,  35.60000,
,,,00.000000268000,  35.60000,
,,,00.000000269000,  35.60000,
,,,00.000000270000,  35.60000,
,,,00.000000271000,  36.00000,
,,,00.000000272000,  36.00000,
,,,00.000000273000,  36.40000,
,,,00.000000274000,  36.00000,
,,,00.000000275000,  36.00000,
,,,00.000000276000,  36.00000,
,,,00.000000277000,  35.60000,
,,,00.000000278000,  36.00000,
,,,00.000000279000,  36.00000,
,,,00.000000280000,  35.60000,
,,,00.000000281000,  36.00000,
,,,00.000000282000,  35.60000,
,,,00.000000283000,  36.40000,
,,,00.000000284000,  36.00000,
,,,00.000000285000,  35.60000,
,,,00.000000286000,  34.80000,
,,,00.000000287000,  36.00000,
,,,00.000000288000,  35.20000,
,,,00.000000289000,  35.60000,
,,,00.000000290000,  36.00000,
,,,00.000000291000,  35.60000,
,,,00.000000292000,  35.60000,
,,,00.000000293000,  35.60000,
,,,00.000000294000,  35.20000,
,,,00.000000295000,  35.20000,
,,,00.000000296000,  35.60000,
,,,00.000000297000,  35.20000,
,,,00.000000298000,  35.60000,
,,,00.000000299000,  34.80000,
,,,00.000000300000,  35.60000,
,,,00.000000301000,  35.60000,
,,,00.000000302000,  36.00000,
,,,00.000000303000,  35.60000,
,,,00.000000304000,  34.80000,
,,,00.000000305000,  35.20000,
,,,00.000000306000,  35.20000,
,,,00.000000307000,  35.20000,
,,,00.000000308000,  35.20000,
,,,00.000000309000,  34.80000,
,,,00.000000310000,  35.60000,
,,,00.000000311000,  35.20000,
,,,00.000000312000,  34.80000,
,,,00.000000313000,  34.80000,
,,,00.000000314000,  34.80000,
,,,00.000000315000,  34.80000,
,,,00.000000316000,  35.20000,
,,,00.000000317000,  35.20000,
,,,00.000000318000,  34.80000,
,,,00.000000319000,  34.80000,
,,,00.000000320000,  34.80000,
,,,00.000000321000,  34.80000,
,,,00.000000322000,  35.20000,
,,,00.000000323000,  35.20000,
,,,00.000000324000,  34.80000,
,,,00.000000325000,  35.20000,
,,,00.000000326000,  34.40000,
,,,00.000000327000,  34.40000,
,,,00.000000328000,  34.80000,
,,,00.000000329000,  34.80000,
,,,00.000000330000,  34.40000,
,,,00.000000331000,  34.40000,
,,,00.000000332000,  34.80000,
,,,00.000000333000,  34.40000,
,,,00.000000334000,  34.80000,
,,,00.000000335000,  34.80000,
,,,00.000000336000,  34.80000,
,,,00.000000337000,  34.80000,
,,,00.000000338000,  35.20000,
,,,00.000000339000,  34.80000,
,,,00.000000340000,  34.80000,
,,,00.000000341000,  34.80000,
,,,00.000000342000,  35.20000,
,,,00.000000343000,  34.40000,
,,,00.000000344000,  34.80000,
,,,00.000000345000,  34.80000,
,,,00.000000346000,  34.80000,
,,,00.000000347000,  34.40000,
,,,00.000000348000,  34.80000,
,,,00.000000349000,  34.00000,
,,,00.000000350000,  34.40000,
,,,00.000000351000,  34.00000,
,,,00.000000352000,  34.00000,
,,,00.000000353000,  34.00000,
,,,00.000000354000,  34.00000,
